%!PS-Adobe-3.0 EPSF-3.0
%%Creator: MATLAB, The MathWorks, Inc. Version 8.3.0.532 (R2014a). Operating System: Microsoft Windows 8.1 Pro.
%%Title: F:\research\project\NS\NS_0.23Cutoff.eps
%%CreationDate: 02/26/2015  19:12:04
%%DocumentNeededFonts: Helvetica
%%DocumentProcessColors: Cyan Magenta Yellow Black
%%LanguageLevel: 2
%%Pages: 1
%%BoundingBox:    27   191   583   599
%%EndComments

%%BeginProlog
% MathWorks dictionary
/MathWorks 160 dict begin
% definition operators
/bdef {bind def} bind def
/ldef {load def} bind def
/xdef {exch def} bdef
/xstore {exch store} bdef
% operator abbreviations
/c  /clip ldef
/cc /concat ldef
/cp /closepath ldef
/gr /grestore ldef
/gs /gsave ldef
/mt /moveto ldef
/np /newpath ldef
/cm /currentmatrix ldef
/sm /setmatrix ldef
/rm /rmoveto ldef
/rl /rlineto ldef
/s {show newpath} bdef
/sc {setcmykcolor} bdef
/sr /setrgbcolor ldef
/sg /setgray ldef
/w /setlinewidth ldef
/j /setlinejoin ldef
/cap /setlinecap ldef
/rc {rectclip} bdef
/rf {rectfill} bdef
% page state control
/pgsv () def
/bpage {/pgsv save def} bdef
/epage {pgsv restore} bdef
/bplot /gsave ldef
/eplot {stroke grestore} bdef
% orientation switch
/portraitMode 0 def /landscapeMode 1 def /rotateMode 2 def
% coordinate system mappings
/dpi2point 0 def
% font control
/FontSize 0 def
/FMS {/FontSize xstore findfont [FontSize 0 0 FontSize neg 0 0]
  makefont setfont} bdef
/ISOLatin1Encoding where {pop /WindowsLatin1Encoding 256 array bdef
ISOLatin1Encoding WindowsLatin1Encoding copy pop
/.notdef/.notdef/quotesinglbase/florin/quotedblbase/ellipsis/dagger
/daggerdbl/circumflex/perthousand/Scaron/guilsinglleft/OE/.notdef/.notdef
/.notdef/.notdef/quoteleft/quoteright/quotedblleft/quotedblright/bullet
/endash/emdash/tilde/trademark/scaron/guilsinglright/oe/.notdef/.notdef
/Ydieresis WindowsLatin1Encoding 128 32 getinterval astore pop}
{/WindowsLatin1Encoding StandardEncoding bdef} ifelse
/reencode {exch dup where {pop load} {pop StandardEncoding} ifelse
  exch dup 3 1 roll findfont dup length dict begin
  { 1 index /FID ne {def}{pop pop} ifelse } forall
  /Encoding exch def currentdict end definefont pop} bdef
/isroman {findfont /CharStrings get /Agrave known} bdef
/FMSR {3 1 roll 1 index dup isroman {reencode} {pop pop} ifelse
  exch FMS} bdef
/csm {1 dpi2point div -1 dpi2point div scale neg translate
 dup landscapeMode eq {pop -90 rotate}
  {rotateMode eq {90 rotate} if} ifelse} bdef
% line types: solid, dotted, dashed, dotdash
/SO { [] 0 setdash } bdef
/DO { [.5 dpi2point mul 4 dpi2point mul] 0 setdash } bdef
/DA { [6 dpi2point mul] 0 setdash } bdef
/DD { [.5 dpi2point mul 4 dpi2point mul 6 dpi2point mul 4
  dpi2point mul] 0 setdash } bdef
% macros for lines and objects
/L {lineto stroke} bdef
/MP {3 1 roll moveto 1 sub {rlineto} repeat} bdef
/AP {{rlineto} repeat} bdef
/PDlw -1 def
/W {/PDlw currentlinewidth def setlinewidth} def
/PP {closepath eofill} bdef
/DP {closepath stroke} bdef
/MR {4 -2 roll moveto dup  0 exch rlineto exch 0 rlineto
  neg 0 exch rlineto closepath} bdef
/FR {MR stroke} bdef
/PR {MR fill} bdef
/L1i {{currentfile picstr readhexstring pop} image} bdef
/tMatrix matrix def
/MakeOval {newpath tMatrix currentmatrix pop translate scale
0 0 1 0 360 arc tMatrix setmatrix} bdef
/FO {MakeOval stroke} bdef
/PO {MakeOval fill} bdef
/PD {currentlinewidth 2 div 0 360 arc fill
   PDlw -1 eq not {PDlw w /PDlw -1 def} if} def
/FA {newpath tMatrix currentmatrix pop translate scale
  0 0 1 5 -2 roll arc tMatrix setmatrix stroke} bdef
/PA {newpath tMatrix currentmatrix pop	translate 0 0 moveto scale
  0 0 1 5 -2 roll arc closepath tMatrix setmatrix fill} bdef
/FAn {newpath tMatrix currentmatrix pop translate scale
  0 0 1 5 -2 roll arcn tMatrix setmatrix stroke} bdef
/PAn {newpath tMatrix currentmatrix pop translate 0 0 moveto scale
  0 0 1 5 -2 roll arcn closepath tMatrix setmatrix fill} bdef
/vradius 0 def /hradius 0 def /lry 0 def
/lrx 0 def /uly 0 def /ulx 0 def /rad 0 def
/MRR {/vradius xdef /hradius xdef /lry xdef /lrx xdef /uly xdef
  /ulx xdef newpath tMatrix currentmatrix pop ulx hradius add uly
  vradius add translate hradius vradius scale 0 0 1 180 270 arc 
  tMatrix setmatrix lrx hradius sub uly vradius add translate
  hradius vradius scale 0 0 1 270 360 arc tMatrix setmatrix
  lrx hradius sub lry vradius sub translate hradius vradius scale
  0 0 1 0 90 arc tMatrix setmatrix ulx hradius add lry vradius sub
  translate hradius vradius scale 0 0 1 90 180 arc tMatrix setmatrix
  closepath} bdef
/FRR {MRR stroke } bdef
/PRR {MRR fill } bdef
/MlrRR {/lry xdef /lrx xdef /uly xdef /ulx xdef /rad lry uly sub 2 div def
  newpath tMatrix currentmatrix pop ulx rad add uly rad add translate
  rad rad scale 0 0 1 90 270 arc tMatrix setmatrix lrx rad sub lry rad
  sub translate rad rad scale 0 0 1 270 90 arc tMatrix setmatrix
  closepath} bdef
/FlrRR {MlrRR stroke } bdef
/PlrRR {MlrRR fill } bdef
/MtbRR {/lry xdef /lrx xdef /uly xdef /ulx xdef /rad lrx ulx sub 2 div def
  newpath tMatrix currentmatrix pop ulx rad add uly rad add translate
  rad rad scale 0 0 1 180 360 arc tMatrix setmatrix lrx rad sub lry rad
  sub translate rad rad scale 0 0 1 0 180 arc tMatrix setmatrix
  closepath} bdef
/FtbRR {MtbRR stroke } bdef
/PtbRR {MtbRR fill } bdef
/stri 6 array def /dtri 6 array def
/smat 6 array def /dmat 6 array def
/tmat1 6 array def /tmat2 6 array def /dif 3 array def
/asub {/ind2 exch def /ind1 exch def dup dup
  ind1 get exch ind2 get sub exch } bdef
/tri_to_matrix {
  2 0 asub 3 1 asub 4 0 asub 5 1 asub
  dup 0 get exch 1 get 7 -1 roll astore } bdef
/compute_transform {
  dmat dtri tri_to_matrix tmat1 invertmatrix 
  smat stri tri_to_matrix tmat2 concatmatrix } bdef
/ds {stri astore pop} bdef
/dt {dtri astore pop} bdef
/db {2 copy /cols xdef /rows xdef mul dup 3 mul string
  currentfile 
  3 index 0 eq {/ASCIIHexDecode filter}
  {/ASCII85Decode filter 3 index 2 eq {/RunLengthDecode filter} if }
  ifelse exch readstring pop
  dup 0 3 index getinterval /rbmap xdef
  dup 2 index dup getinterval /gbmap xdef
  1 index dup 2 mul exch getinterval /bbmap xdef pop pop}bdef
/it {gs np dtri aload pop moveto lineto lineto cp c
  cols rows 8 compute_transform 
  rbmap gbmap bbmap true 3 colorimage gr}bdef
/il {newpath moveto lineto stroke}bdef
currentdict end def
%%EndProlog

%%BeginSetup
MathWorks begin

0 cap

end
%%EndSetup

%%Page: 1 1
%%BeginPageSetup
%%PageBoundingBox:    27   191   583   599
MathWorks begin
bpage
%%EndPageSetup

%%BeginObject: obj1
bplot

/dpi2point 12 def
portraitMode 0324 7188 csm

    0     0  6681  4887 rc
88 dict begin %Colortable dictionary
/c0 { 0.000000 0.000000 0.000000 sr} bdef
/c1 { 1.000000 1.000000 1.000000 sr} bdef
/c2 { 0.900000 0.000000 0.000000 sr} bdef
/c3 { 0.000000 0.820000 0.000000 sr} bdef
/c4 { 0.000000 0.000000 0.800000 sr} bdef
/c5 { 0.910000 0.820000 0.320000 sr} bdef
/c6 { 1.000000 0.260000 0.820000 sr} bdef
/c7 { 0.000000 0.820000 0.820000 sr} bdef
c0
1 j
1 sg
   0    0 6682 4888 rf
6 w
0 3882 5177 0 0 -3882 869 4349 4 MP
PP
-5177 0 0 3882 5177 0 0 -3882 869 4349 5 MP stroke
4 w
DO
SO
6 w
0 sg
 869 4349 mt 6046 4349 L
 869 4349 mt  869  467 L
 869 4349 mt  869 4297 L
%%IncludeResource: font Helvetica
/Helvetica /WindowsLatin1Encoding 144 FMSR

 769 4517 mt 
(2.6) s
1608 4349 mt 1608 4297 L
1508 4517 mt 
(2.8) s
2348 4349 mt 2348 4297 L
2308 4517 mt 
(3) s
3087 4349 mt 3087 4297 L
2987 4517 mt 
(3.2) s
3827 4349 mt 3827 4297 L
3727 4517 mt 
(3.4) s
4566 4349 mt 4566 4297 L
4466 4517 mt 
(3.6) s
5306 4349 mt 5306 4297 L
5206 4517 mt 
(3.8) s
6046 4349 mt 6046 4297 L
6006 4517 mt 
(4) s
 869 4349 mt  920 4349 L
 754 4402 mt 
(0) s
 869 3863 mt  920 3863 L
 754 3916 mt 
(1) s
 869 3378 mt  920 3378 L
 754 3431 mt 
(2) s
 869 2893 mt  920 2893 L
 754 2946 mt 
(3) s
 869 2408 mt  920 2408 L
 754 2461 mt 
(4) s
 869 1923 mt  920 1923 L
 754 1976 mt 
(5) s
 869 1438 mt  920 1438 L
 754 1491 mt 
(6) s
 869  953 mt  920  953 L
 754 1006 mt 
(7) s
 869  467 mt  920  467 L
 754  520 mt 
(8) s
 869  413 mt 
(x 10) s
%%IncludeResource: font Helvetica
/Helvetica /WindowsLatin1Encoding 96 FMSR

1141  324 mt 
(4) s
gs 869 468 5178 3882 rc
DD
36 w
/c8 { 0.466667 0.674510 0.188235 sr} bdef
c8
1 0 74 -17 74 -15 74 -15 74 -13 74 -12 74 -11 74 -10 
74 -8 74 -7 74 -6 74 -4 74 -2 74 -1 74 2 74 4 
74 7 74 10 74 13 74 17 74 21 74 27 74 33 74 41 
73 50 74 62 74 74 74 88 74 102 74 118 74 134 74 151 
74 169 74 187 74 205 74 221 74 232 74 235 74 202 74 118 
74 34 74 -46 74 -119 74 -156 74 -145 74 -134 74 -123 73 -115 
74 -106 74 -99 74 -91 74 -84 74 -79 74 -74 74 -69 74 -66 
74 -62 74 -58 74 -56 74 -52 74 -50 74 -48 74 -46 74 -44 
74 -42 74 -39 74 -39 74 -37 74 -35 74 -34 73 -33 869 3079 72 MP stroke
SO
6 w
gs 5011 3382 147 147 rc
1 sg
  36   36 5084 3455 PO
/c9 { 0.000000 0.000000 1.000000 sr} bdef
c9
  36   36 5084 3455 FO
gr

c9
gs 3014 825 147 147 rc
0 j
36 47 -36 47 -36 -47 36 -47 3087 945 5 MP
1 sg
gs
PP
gr
c9
DP
gr

36 w
/c10 { 1.000000 0.000000 0.000000 sr} bdef
c10
1 -1 74 -20 74 -19 74 -19 74 -18 74 -17 74 -17 74 -16 
74 -15 74 -14 74 -13 74 -12 74 -11 74 -10 74 -9 74 -8 
74 -6 74 -5 74 -3 74 -1 74 1 74 4 74 7 74 10 
73 15 74 19 74 24 74 30 74 35 74 41 74 47 74 52 
74 58 74 65 74 71 74 77 74 84 74 90 74 95 74 101 
74 105 74 110 74 112 74 114 74 113 74 109 74 100 73 58 
74 17 74 -22 74 -57 74 -86 74 -81 74 -77 74 -73 74 -68 
74 -64 74 -61 74 -57 74 -53 74 -51 74 -49 74 -46 74 -44 
74 -42 74 -39 74 -38 74 -37 74 -35 74 -34 73 -32 869 3070 72 MP stroke
6 w
gs 4567 3615 147 147 rc
1 sg
  36   36 4640 3688 PO
c9
  36   36 4640 3688 FO
gr

c9
gs 2423 1851 147 147 rc
0 j
36 47 -36 47 -36 -47 36 -47 2496 1971 5 MP
1 sg
gs
PP
gr
c9
DP
gr

DO
36 w
/c11 { 0.929412 0.694118 0.125490 sr} bdef
c11
1 0 74 -21 74 -21 74 -21 74 -20 74 -19 74 -18 74 -18 
74 -17 74 -17 74 -16 74 -15 74 -14 74 -14 74 -13 74 -11 
74 -11 74 -10 74 -9 74 -7 74 -6 74 -5 74 -3 74 0 
73 1 74 4 74 7 74 10 74 12 74 15 74 18 74 20 
74 23 74 25 74 29 74 31 74 33 74 36 74 38 74 40 
74 43 74 44 74 47 74 47 74 50 74 50 74 51 73 51 
74 51 74 52 74 50 74 49 74 48 74 45 74 42 74 38 
74 35 74 30 74 17 74 1 74 -15 74 -28 74 -41 74 -45 
74 -42 74 -41 74 -39 74 -38 74 -36 74 -35 73 -34 869 3054 72 MP stroke
SO
6 w
gs 4271 3770 147 147 rc
1 sg
  36   36 4344 3843 PO
c9
  36   36 4344 3843 FO
gr

c9
gs 1609 2587 147 147 rc
0 j
36 47 -36 47 -36 -47 36 -47 1682 2707 5 MP
1 sg
gs
PP
gr
c9
DP
gr

gr

c9
0 sg
%%IncludeResource: font Helvetica
/Helvetica /WindowsLatin1Encoding 192 FMSR

3389 4713 mt 
(t) s
%%IncludeResource: font Helvetica
/Helvetica /WindowsLatin1Encoding 144 FMSR

3442 4809 mt 
(0) s
%%IncludeResource: font Helvetica
/Helvetica /WindowsLatin1Encoding 192 FMSR

 518  629 mt 
(S) s
%%IncludeResource: font Helvetica
/Helvetica /WindowsLatin1Encoding 240 FMSR

1976  223 mt 
(S vs. t) s
%%IncludeResource: font Helvetica
/Helvetica /WindowsLatin1Encoding 192 FMSR

2624  343 mt 
(0) s
%%IncludeResource: font Helvetica
/Helvetica /WindowsLatin1Encoding 240 FMSR

2730  223 mt 
( with Various Cutoffs) s
%%IncludeResource: font Helvetica
/Helvetica /WindowsLatin1Encoding 120 FMSR

 852 4392 mt 
( ) s
6030  510 mt 
( ) s
gs 869 468 5178 3882 rc
DD
24 w
0.8 sg
0 -3881 2496 4349 2 MP stroke
SO
6 w
gr

0.8 sg
1 sg
0 813 1413 0 0 -813 4451 1431 4 MP
PP
-1413 0 0 813 1413 0 0 -813 4451 1431 5 MP stroke
4 w
DO
SO
6 w
0 sg
4451  618 mt 5864  618 L
4451 1431 mt 5864 1431 L
5864 1431 mt 5864  618 L
4451 1431 mt 4451  618 L
4451 1431 mt 5864 1431 L
4451 1431 mt 4451  618 L
4451  618 mt 5864  618 L
4451 1431 mt 5864 1431 L
5864 1431 mt 5864  618 L
4451 1431 mt 4451  618 L
%%IncludeResource: font Symbol
/Symbol /WindowsLatin1Encoding 192 FMSR

4919  837 mt 
(p) s
%%IncludeResource: font Helvetica
/Helvetica /WindowsLatin1Encoding 192 FMSR

5024  837 mt 
(/\(0.225R\)) s
gs 4451 618 1414 814 rc
DD
36 w
c8
360 0 4523 767 2 MP stroke
4703 767 PD
gr

36 w
c8
DD
0 sg
%%IncludeResource: font Symbol
/Symbol /WindowsLatin1Encoding 192 FMSR

4919 1094 mt 
(p) s
%%IncludeResource: font Helvetica
/Helvetica /WindowsLatin1Encoding 192 FMSR

5024 1094 mt 
(/\(0.230R\)) s
gs 4451 618 1414 814 rc
SO
c10
360 0 4523 1024 2 MP stroke
gr

c10
SO
0 sg
%%IncludeResource: font Symbol
/Symbol /WindowsLatin1Encoding 192 FMSR

4919 1351 mt 
(p) s
%%IncludeResource: font Helvetica
/Helvetica /WindowsLatin1Encoding 192 FMSR

5024 1351 mt 
(/\(0.235R\)) s
gs 4451 618 1414 814 rc
DO
c11
360 0 4523 1281 2 MP stroke
4703 1281 PD
SO
6 w
gr

6 w
c11
0 sg
103 188 2307 1599 2 MP stroke
-38 -68 19 127 2429 1728 3 MP
PP
19 -59 -38 -68 19 127 2429 1728 4 MP stroke
60 16 -98 -84 2448 1855 3 MP
PP
38 68 60 16 -98 -84 2448 1855 4 MP stroke
0.8 sg
-421 0 0 -269 421 0 2098 1623 4 MP
PP
0 sg
2122 1556 mt 
(3.04) s

end %%Color Dict

eplot
%%EndObject

epage
end

showpage

%%Trailer
%%EOF
