%!PS-Adobe-3.0 EPSF-3.0
%%Creator: MATLAB, The MathWorks, Inc. Version 8.3.0.532 (R2014a). Operating System: Microsoft Windows 8.1 Pro.
%%Title: F:\research\project\NS\NS_allCutoff.eps
%%CreationDate: 03/02/2015  21:18:06
%%DocumentNeededFonts: Helvetica
%%DocumentProcessColors: Cyan Magenta Yellow Black
%%LanguageLevel: 2
%%Pages: 1
%%BoundingBox:    27   190   583   600
%%EndComments

%%BeginProlog
% MathWorks dictionary
/MathWorks 160 dict begin
% definition operators
/bdef {bind def} bind def
/ldef {load def} bind def
/xdef {exch def} bdef
/xstore {exch store} bdef
% operator abbreviations
/c  /clip ldef
/cc /concat ldef
/cp /closepath ldef
/gr /grestore ldef
/gs /gsave ldef
/mt /moveto ldef
/np /newpath ldef
/cm /currentmatrix ldef
/sm /setmatrix ldef
/rm /rmoveto ldef
/rl /rlineto ldef
/s {show newpath} bdef
/sc {setcmykcolor} bdef
/sr /setrgbcolor ldef
/sg /setgray ldef
/w /setlinewidth ldef
/j /setlinejoin ldef
/cap /setlinecap ldef
/rc {rectclip} bdef
/rf {rectfill} bdef
% page state control
/pgsv () def
/bpage {/pgsv save def} bdef
/epage {pgsv restore} bdef
/bplot /gsave ldef
/eplot {stroke grestore} bdef
% orientation switch
/portraitMode 0 def /landscapeMode 1 def /rotateMode 2 def
% coordinate system mappings
/dpi2point 0 def
% font control
/FontSize 0 def
/FMS {/FontSize xstore findfont [FontSize 0 0 FontSize neg 0 0]
  makefont setfont} bdef
/ISOLatin1Encoding where {pop /WindowsLatin1Encoding 256 array bdef
ISOLatin1Encoding WindowsLatin1Encoding copy pop
/.notdef/.notdef/quotesinglbase/florin/quotedblbase/ellipsis/dagger
/daggerdbl/circumflex/perthousand/Scaron/guilsinglleft/OE/.notdef/.notdef
/.notdef/.notdef/quoteleft/quoteright/quotedblleft/quotedblright/bullet
/endash/emdash/tilde/trademark/scaron/guilsinglright/oe/.notdef/.notdef
/Ydieresis WindowsLatin1Encoding 128 32 getinterval astore pop}
{/WindowsLatin1Encoding StandardEncoding bdef} ifelse
/reencode {exch dup where {pop load} {pop StandardEncoding} ifelse
  exch dup 3 1 roll findfont dup length dict begin
  { 1 index /FID ne {def}{pop pop} ifelse } forall
  /Encoding exch def currentdict end definefont pop} bdef
/isroman {findfont /CharStrings get /Agrave known} bdef
/FMSR {3 1 roll 1 index dup isroman {reencode} {pop pop} ifelse
  exch FMS} bdef
/csm {1 dpi2point div -1 dpi2point div scale neg translate
 dup landscapeMode eq {pop -90 rotate}
  {rotateMode eq {90 rotate} if} ifelse} bdef
% line types: solid, dotted, dashed, dotdash
/SO { [] 0 setdash } bdef
/DO { [.5 dpi2point mul 4 dpi2point mul] 0 setdash } bdef
/DA { [6 dpi2point mul] 0 setdash } bdef
/DD { [.5 dpi2point mul 4 dpi2point mul 6 dpi2point mul 4
  dpi2point mul] 0 setdash } bdef
% macros for lines and objects
/L {lineto stroke} bdef
/MP {3 1 roll moveto 1 sub {rlineto} repeat} bdef
/AP {{rlineto} repeat} bdef
/PDlw -1 def
/W {/PDlw currentlinewidth def setlinewidth} def
/PP {closepath eofill} bdef
/DP {closepath stroke} bdef
/MR {4 -2 roll moveto dup  0 exch rlineto exch 0 rlineto
  neg 0 exch rlineto closepath} bdef
/FR {MR stroke} bdef
/PR {MR fill} bdef
/L1i {{currentfile picstr readhexstring pop} image} bdef
/tMatrix matrix def
/MakeOval {newpath tMatrix currentmatrix pop translate scale
0 0 1 0 360 arc tMatrix setmatrix} bdef
/FO {MakeOval stroke} bdef
/PO {MakeOval fill} bdef
/PD {currentlinewidth 2 div 0 360 arc fill
   PDlw -1 eq not {PDlw w /PDlw -1 def} if} def
/FA {newpath tMatrix currentmatrix pop translate scale
  0 0 1 5 -2 roll arc tMatrix setmatrix stroke} bdef
/PA {newpath tMatrix currentmatrix pop	translate 0 0 moveto scale
  0 0 1 5 -2 roll arc closepath tMatrix setmatrix fill} bdef
/FAn {newpath tMatrix currentmatrix pop translate scale
  0 0 1 5 -2 roll arcn tMatrix setmatrix stroke} bdef
/PAn {newpath tMatrix currentmatrix pop translate 0 0 moveto scale
  0 0 1 5 -2 roll arcn closepath tMatrix setmatrix fill} bdef
/vradius 0 def /hradius 0 def /lry 0 def
/lrx 0 def /uly 0 def /ulx 0 def /rad 0 def
/MRR {/vradius xdef /hradius xdef /lry xdef /lrx xdef /uly xdef
  /ulx xdef newpath tMatrix currentmatrix pop ulx hradius add uly
  vradius add translate hradius vradius scale 0 0 1 180 270 arc 
  tMatrix setmatrix lrx hradius sub uly vradius add translate
  hradius vradius scale 0 0 1 270 360 arc tMatrix setmatrix
  lrx hradius sub lry vradius sub translate hradius vradius scale
  0 0 1 0 90 arc tMatrix setmatrix ulx hradius add lry vradius sub
  translate hradius vradius scale 0 0 1 90 180 arc tMatrix setmatrix
  closepath} bdef
/FRR {MRR stroke } bdef
/PRR {MRR fill } bdef
/MlrRR {/lry xdef /lrx xdef /uly xdef /ulx xdef /rad lry uly sub 2 div def
  newpath tMatrix currentmatrix pop ulx rad add uly rad add translate
  rad rad scale 0 0 1 90 270 arc tMatrix setmatrix lrx rad sub lry rad
  sub translate rad rad scale 0 0 1 270 90 arc tMatrix setmatrix
  closepath} bdef
/FlrRR {MlrRR stroke } bdef
/PlrRR {MlrRR fill } bdef
/MtbRR {/lry xdef /lrx xdef /uly xdef /ulx xdef /rad lrx ulx sub 2 div def
  newpath tMatrix currentmatrix pop ulx rad add uly rad add translate
  rad rad scale 0 0 1 180 360 arc tMatrix setmatrix lrx rad sub lry rad
  sub translate rad rad scale 0 0 1 0 180 arc tMatrix setmatrix
  closepath} bdef
/FtbRR {MtbRR stroke } bdef
/PtbRR {MtbRR fill } bdef
/stri 6 array def /dtri 6 array def
/smat 6 array def /dmat 6 array def
/tmat1 6 array def /tmat2 6 array def /dif 3 array def
/asub {/ind2 exch def /ind1 exch def dup dup
  ind1 get exch ind2 get sub exch } bdef
/tri_to_matrix {
  2 0 asub 3 1 asub 4 0 asub 5 1 asub
  dup 0 get exch 1 get 7 -1 roll astore } bdef
/compute_transform {
  dmat dtri tri_to_matrix tmat1 invertmatrix 
  smat stri tri_to_matrix tmat2 concatmatrix } bdef
/ds {stri astore pop} bdef
/dt {dtri astore pop} bdef
/db {2 copy /cols xdef /rows xdef mul dup 3 mul string
  currentfile 
  3 index 0 eq {/ASCIIHexDecode filter}
  {/ASCII85Decode filter 3 index 2 eq {/RunLengthDecode filter} if }
  ifelse exch readstring pop
  dup 0 3 index getinterval /rbmap xdef
  dup 2 index dup getinterval /gbmap xdef
  1 index dup 2 mul exch getinterval /bbmap xdef pop pop}bdef
/it {gs np dtri aload pop moveto lineto lineto cp c
  cols rows 8 compute_transform 
  rbmap gbmap bbmap true 3 colorimage gr}bdef
/il {newpath moveto lineto stroke}bdef
currentdict end def
%%EndProlog

%%BeginSetup
MathWorks begin

0 cap

end
%%EndSetup

%%Page: 1 1
%%BeginPageSetup
%%PageBoundingBox:    27   190   583   600
MathWorks begin
bpage
%%EndPageSetup

%%BeginObject: obj1
bplot

/dpi2point 12 def
portraitMode 0324 7200 csm

    0     0  6681  4915 rc
94 dict begin %Colortable dictionary
/c0 { 0.000000 0.000000 0.000000 sr} bdef
/c1 { 1.000000 1.000000 1.000000 sr} bdef
/c2 { 0.900000 0.000000 0.000000 sr} bdef
/c3 { 0.000000 0.820000 0.000000 sr} bdef
/c4 { 0.000000 0.000000 0.800000 sr} bdef
/c5 { 0.910000 0.820000 0.320000 sr} bdef
/c6 { 1.000000 0.260000 0.820000 sr} bdef
/c7 { 0.000000 0.820000 0.820000 sr} bdef
c0
1 j
1 sg
   0    0 6682 4916 rf
6 w
0 3920 5177 0 0 -3920 869 4374 4 MP
PP
-5177 0 0 3920 5177 0 0 -3920 869 4374 5 MP stroke
4 w
DO
SO
6 w
0 sg
 869 4374 mt 6046 4374 L
 869 4374 mt  869  454 L
 869 4374 mt  869 4322 L
%%IncludeResource: font Helvetica
/Helvetica /WindowsLatin1Encoding 120 FMSR

 836 4519 mt 
(1) s
1731 4374 mt 1731 4322 L
1698 4519 mt 
(2) s
2594 4374 mt 2594 4322 L
2561 4519 mt 
(3) s
3457 4374 mt 3457 4322 L
3424 4519 mt 
(4) s
4320 4374 mt 4320 4322 L
4287 4519 mt 
(5) s
5183 4374 mt 5183 4322 L
5150 4519 mt 
(6) s
6046 4374 mt 6046 4322 L
6013 4519 mt 
(7) s
 869 4374 mt  920 4374 L
 768 4418 mt 
(0) s
 869 3802 mt  920 3802 L
 768 3846 mt 
(2) s
 869 3230 mt  920 3230 L
 768 3274 mt 
(4) s
 869 2658 mt  920 2658 L
 768 2702 mt 
(6) s
 869 2086 mt  920 2086 L
 768 2130 mt 
(8) s
 869 1514 mt  920 1514 L
 701 1558 mt 
(10) s
 869  942 mt  920  942 L
 701  986 mt 
(12) s
 869  400 mt 
(x 10) s
%%IncludeResource: font Helvetica
/Helvetica /WindowsLatin1Encoding 80 FMSR

1095  326 mt 
(4) s
gs 869 454 5178 3921 rc
24 w
/c8 { 1.000000 0.000000 0.000000 sr} bdef
c8
71 -320 87 -353 86 -321 86 -293 86 -266 87 -242 86 -219 86 -199 
87 -180 86 -163 86 -147 86 -133 87 -119 86 -107 86 -96 87 -86 
17 -16 17 -16 17 -15 18 -15 17 -15 17 -14 17 -14 18 -14 
17 -13 17 -13 17 -13 18 -13 17 -12 17 -12 17 -11 18 -12 
17 -11 17 -11 17 -10 18 -11 17 -10 17 -9 17 -10 18 -9 
17 -9 17 -9 18 -9 17 -8 17 -9 17 -8 18 -7 17 -8 
17 -7 17 -7 18 -7 17 -7 17 -7 17 -6 18 -6 17 -7 
17 -5 17 -6 18 -6 17 -5 17 -5 17 -5 18 -5 17 -5 
17 -4 17 -4 18 -5 17 -4 17 -3 17 -4 18 -4 17 -3 
17 -3 17 -3 18 -3 17 -3 17 -3 17 -2 18 -3 17 -2 
17 -2 18 -2 17 -2 17 -2 17 -1 18 -2 17 -1 17 -2 
17 -1 18 -1 17 -1 17 -1 17 -1 18 -1 17 0 17 -1 
17 0 18 -1 17 0 17 0 17 0 18 0 17 0 17 0 
17 0 18 0 17 1 17 0 17 0 18 1 17 0 17 1 
17 0 18 1 17 1 17 0 87 3 86 2 86 0 86 -2 
87 -5 86 -7 86 -9 87 -11 86 -11 86 -11 86 -10 87 -11 
86 -9 86 -9 86 -8 869 4328 132 MP stroke
6 w
gr

c8
gs 796 4162 1682 244 rc
1 sg
  36   36 2404 4235 PO
/c9 { 0.000000 0.000000 1.000000 sr} bdef
c9
  36   36 2404 4235 FO
gr

c9
gs 869 454 5178 3921 rc
gr

gs 796 4127 1182 172 rc
0 j
36 47 -36 47 -36 -47 36 -47 1904 4272 5 MP
1 sg
gs
PP
gr
c9
DP
gr

gs 869 454 5178 3921 rc
24 w
/c10 { 1.000000 0.545455 0.000000 sr} bdef
c10
67 -306 87 -355 86 -323 86 -293 87 -267 86 -241 86 -218 86 -198 
87 -179 86 -161 86 -146 87 -131 86 -118 86 -107 86 -95 87 -86 
86 -77 86 -69 87 -61 17 -12 17 -11 17 -11 18 -11 17 -10 
17 -11 17 -10 18 -10 17 -9 17 -10 17 -9 18 -9 17 -8 
17 -9 17 -8 18 -9 17 -8 17 -7 17 -8 18 -8 17 -7 
17 -7 17 -7 18 -7 17 -6 17 -7 18 -6 17 -7 17 -6 
17 -6 18 -5 17 -6 17 -5 17 -6 18 -5 17 -5 17 -5 
17 -5 18 -5 17 -5 17 -4 17 -5 18 -4 17 -4 17 -4 
17 -4 18 -4 17 -4 17 -4 17 -4 18 -3 17 -4 17 -3 
17 -3 18 -4 17 -3 17 -3 17 -3 18 -3 17 -3 17 -3 
17 -2 18 -3 17 -3 17 -2 18 -3 17 -2 17 -2 17 -3 
18 -2 17 -2 17 -2 17 -2 18 -2 17 -2 17 -2 17 -2 
18 -2 17 -2 17 -2 17 -1 18 -2 17 -2 17 -1 17 -2 
18 -1 17 -2 17 -1 17 -2 18 -1 17 -1 17 -1 17 -2 
18 -1 17 -1 17 -1 17 -1 18 -1 17 -2 17 -1 87 -4 
86 -4 86 -4 86 -3 87 -2 86 -3 86 -1 87 -1 86 -1 
86 0 86 0 87 0 86 0 86 0 86 0 869 4359 135 MP stroke
6 w
gr

c10
gs 796 4286 578 149 rc
1 sg
  36   36 1300 4359 PO
c9
  36   36 1300 4359 FO
gr

c9
gs 869 454 5178 3921 rc
gr

gs 796 4276 233 157 rc
0 j
36 47 -36 47 -36 -47 36 -47 955 4406 5 MP
1 sg
gs
PP
gr
c9
DP
gr

gs 869 454 5178 3921 rc
24 w
/c11 { 0.909091 1.000000 0.000000 sr} bdef
c11
78 -354 86 -355 86 -322 87 -293 86 -265 86 -240 87 -217 86 -196 
86 -177 86 -160 87 -144 86 -129 86 -117 87 -105 86 -93 86 -85 
86 -75 87 -67 86 -61 86 -54 87 -48 17 -9 17 -8 17 -9 
18 -8 17 -8 17 -8 17 -8 18 -8 17 -7 17 -8 17 -7 
18 -7 17 -6 17 -7 17 -6 18 -7 17 -6 17 -6 17 -6 
18 -6 17 -5 17 -6 17 -5 18 -5 17 -5 17 -5 18 -5 
17 -5 17 -4 17 -5 18 -4 17 -5 17 -4 17 -4 18 -4 
17 -4 17 -3 17 -4 18 -4 17 -3 17 -4 17 -3 18 -3 
17 -4 17 -3 17 -3 18 -3 17 -3 17 -2 17 -3 18 -3 
17 -2 17 -3 17 -2 18 -3 17 -2 17 -2 17 -3 18 -2 
17 -2 17 -2 17 -2 18 -2 17 -2 17 -2 18 -1 17 -2 
17 -2 17 -2 18 -1 17 -2 17 -1 17 -2 18 -1 17 -2 
17 -1 17 -1 18 -2 17 -1 17 -1 17 -1 18 -2 17 -1 
17 -1 17 -1 18 -1 17 -1 17 -1 17 -1 18 -1 17 -1 
17 -1 17 -1 18 0 17 -1 17 -1 17 -1 18 0 17 -1 
17 -1 87 -3 86 -3 86 -2 86 -2 87 -2 86 -2 86 -1 
87 -1 86 -1 86 -1 86 0 87 -1 86 -1 86 0 86 0 
869 4371 137 MP stroke
/c12 { 0.363636 1.000000 0.000000 sr} bdef
c12
36 -172 87 -373 86 -339 86 -307 86 -279 87 -253 86 -228 86 -207 
87 -186 86 -168 86 -152 86 -136 87 -122 86 -110 86 -98 87 -89 
86 -79 86 -70 86 -63 87 -56 86 -51 86 -44 87 -40 17 -7 
17 -8 17 -7 18 -7 17 -6 17 -7 17 -6 18 -7 17 -6 
17 -6 17 -5 18 -6 17 -6 17 -5 17 -5 18 -6 17 -5 
17 -5 17 -4 18 -5 17 -5 17 -4 17 -4 18 -5 17 -4 
17 -4 18 -4 17 -4 17 -3 17 -4 18 -4 17 -3 17 -3 
17 -4 18 -3 17 -3 17 -3 17 -3 18 -3 17 -3 17 -3 
17 -2 18 -3 17 -3 17 -2 17 -3 18 -2 17 -2 17 -3 
17 -2 18 -2 17 -2 17 -2 17 -2 18 -2 17 -2 17 -2 
17 -2 18 -1 17 -2 17 -2 17 -1 18 -2 17 -1 17 -2 
18 -1 17 -2 17 -1 17 -1 18 -2 17 -1 17 -1 17 -1 
18 -2 17 -1 17 -1 17 -1 18 -1 17 -1 17 -1 17 -1 
18 -1 17 -1 17 -1 17 -1 18 0 17 -1 17 -1 17 -1 
18 -1 17 0 17 -1 17 -1 18 -1 17 0 17 -1 17 0 
18 -1 17 -1 17 0 87 -3 86 -2 86 -2 86 -2 87 -2 
86 -1 86 -1 87 -1 86 -1 86 -1 86 0 87 -1 86 -1 
86 0 86 0 869 4371 139 MP stroke
/c13 { 0.000000 1.000000 0.181818 sr} bdef
c13
44 -208 86 -368 87 -335 86 -305 86 -277 86 -251 87 -226 86 -205 
86 -185 87 -167 86 -150 86 -135 86 -121 87 -108 86 -98 86 -87 
87 -78 86 -70 86 -62 86 -55 87 -50 86 -44 86 -39 87 -34 
17 -7 17 -6 17 -6 18 -6 17 -6 17 -6 17 -5 18 -6 
17 -5 17 -5 17 -6 18 -5 17 -4 17 -5 17 -5 18 -4 
17 -5 17 -4 17 -4 18 -4 17 -4 17 -4 17 -4 18 -3 
17 -4 17 -4 18 -3 17 -3 17 -4 17 -3 18 -3 17 -3 
17 -3 17 -3 18 -3 17 -2 17 -3 17 -3 18 -2 17 -3 
17 -2 17 -2 18 -3 17 -2 17 -2 17 -2 18 -2 17 -2 
17 -2 17 -2 18 -2 17 -2 17 -2 17 -1 18 -2 17 -2 
17 -1 17 -2 18 -1 17 -2 17 -1 17 -2 18 -1 17 -2 
17 -1 18 -1 17 -1 17 -2 17 -1 18 -1 17 -1 17 -1 
17 -1 18 -1 17 -1 17 -1 17 -1 18 -1 17 -1 17 -1 
17 -1 18 -1 17 0 17 -1 17 -1 18 -1 17 0 17 -1 
17 -1 18 -1 17 0 17 -1 17 0 18 -1 17 -1 17 0 
17 -1 18 0 17 -1 17 0 87 -3 86 -2 86 -2 86 -1 
87 -2 86 -1 86 -1 87 -1 86 -1 86 -1 86 0 87 -1 
86 -1 86 0 86 0 869 4371 140 MP stroke
/c14 { 0.000000 1.000000 0.727273 sr} bdef
c14
27 -128 86 -373 86 -341 87 -310 86 -282 86 -256 86 -232 87 -209 
86 -189 86 -171 87 -153 86 -138 86 -124 86 -112 87 -99 86 -90 
86 -79 87 -72 86 -63 86 -57 86 -51 87 -45 86 -40 86 -35 
87 -32 17 -6 17 -5 17 -6 18 -5 17 -6 17 -5 17 -5 
18 -5 17 -5 17 -4 17 -5 18 -5 17 -4 17 -4 17 -4 
18 -5 17 -4 17 -3 17 -4 18 -4 17 -4 17 -3 17 -4 
18 -3 17 -3 17 -3 18 -3 17 -3 17 -3 17 -3 18 -3 
17 -3 17 -3 17 -2 18 -3 17 -2 17 -3 17 -2 18 -2 
17 -3 17 -2 17 -2 18 -2 17 -2 17 -2 17 -2 18 -2 
17 -2 17 -2 17 -1 18 -2 17 -2 17 -1 17 -2 18 -1 
17 -2 17 -1 17 -2 18 -1 17 -2 17 -1 17 -1 18 -1 
17 -2 17 -1 18 -1 17 -1 17 -1 17 -1 18 -1 17 -1 
17 -1 17 -1 18 -1 17 -1 17 -1 17 -1 18 -1 17 -1 
17 -1 17 0 18 -1 17 -1 17 -1 17 0 18 -1 17 -1 
17 0 17 -1 18 -1 17 0 17 -1 17 -1 18 0 17 -1 
17 0 17 -1 18 0 17 -1 17 0 87 -3 86 -2 86 -1 
86 -2 87 -1 86 -1 86 -1 87 -1 86 -1 86 -1 86 -1 
87 0 86 -1 86 0 86 0 869 4371 141 MP stroke
/c15 { 0.000000 0.727273 1.000000 sr} bdef
c15
79 -351 86 -352 86 -322 87 -292 86 -266 86 -242 86 -218 87 -198 
86 -178 86 -160 87 -145 86 -130 86 -116 86 -105 87 -93 86 -84 
86 -75 87 -67 86 -59 86 -53 86 -48 87 -42 86 -37 86 -33 
87 -30 17 -5 17 -5 17 -6 18 -5 17 -5 17 -4 17 -5 
18 -5 17 -4 17 -5 17 -4 18 -4 17 -4 17 -4 17 -4 
18 -4 17 -4 17 -3 17 -4 18 -3 17 -4 17 -3 17 -3 
18 -3 17 -4 17 -2 18 -3 17 -3 17 -3 17 -3 18 -2 
17 -3 17 -2 17 -3 18 -2 17 -3 17 -2 17 -2 18 -2 
17 -2 17 -2 17 -2 18 -2 17 -2 17 -2 17 -2 18 -2 
17 -1 17 -2 17 -2 18 -1 17 -2 17 -1 17 -2 18 -1 
17 -2 17 -1 17 -2 18 -1 17 -1 17 -1 17 -2 18 -1 
17 -1 17 -1 18 -1 17 -1 17 -1 17 -1 18 -1 17 -1 
17 -1 17 -1 18 -1 17 -1 17 -1 17 -1 18 0 17 -1 
17 -1 17 -1 18 0 17 -1 17 -1 17 -1 18 0 17 -1 
17 0 17 -1 18 -1 17 0 17 -1 17 0 18 -1 17 0 
17 -1 17 0 18 -1 17 0 17 -1 87 -2 86 -2 86 -2 
86 -1 87 -1 86 -2 86 -1 87 0 86 -1 86 -1 86 -1 
87 0 86 -1 86 0 86 0 869 4371 141 MP stroke
/c16 { 0.000000 0.181818 1.000000 sr} bdef
c16
87 -368 86 -337 86 -307 87 -280 86 -255 86 -231 86 -209 87 -188 
86 -171 86 -153 87 -138 86 -124 86 -112 86 -99 87 -89 86 -80 
86 -71 87 -64 86 -57 86 -50 86 -45 87 -40 86 -35 86 -32 
87 -28 17 -5 17 -5 17 -5 18 -5 17 -5 17 -4 17 -5 
18 -4 17 -5 17 -4 17 -4 18 -4 17 -4 17 -4 17 -3 
18 -4 17 -3 17 -4 17 -3 18 -3 17 -4 17 -3 17 -3 
18 -3 17 -3 17 -3 18 -2 17 -3 17 -3 17 -2 18 -3 
17 -2 17 -3 17 -2 18 -2 17 -2 17 -3 17 -2 18 -2 
17 -2 17 -2 17 -2 18 -1 17 -2 17 -2 17 -2 18 -1 
17 -2 17 -2 17 -1 18 -2 17 -1 17 -2 17 -1 18 -2 
17 -1 17 -1 17 -1 18 -2 17 -1 17 -1 17 -1 18 -1 
17 -2 17 -1 18 -1 17 -1 17 -1 17 -1 18 -1 17 -1 
17 0 17 -1 18 -1 17 -1 17 -1 17 -1 18 0 17 -1 
17 -1 17 -1 18 0 17 -1 17 -1 17 0 18 -1 17 -1 
17 0 17 -1 18 0 17 -1 17 0 17 -1 18 -1 17 0 
17 -1 17 0 18 0 17 -1 17 0 87 -2 86 -2 86 -2 
86 -1 87 -2 86 -1 86 -1 87 -1 86 0 86 -1 86 -1 
87 0 86 -1 86 0 86 -1 869 4372 141 MP stroke
/c17 { 0.363636 0.000000 1.000000 sr} bdef
c17
87 -356 86 -325 86 -297 87 -271 86 -246 86 -223 86 -202 87 -183 
86 -164 86 -148 87 -134 86 -119 86 -108 86 -96 87 -86 86 -77 
86 -68 87 -61 86 -55 86 -49 86 -43 87 -38 86 -34 86 -31 
87 -27 17 -5 17 -4 17 -5 18 -5 17 -4 17 -5 17 -4 
18 -4 17 -5 17 -4 17 -4 18 -3 17 -4 17 -4 17 -3 
18 -4 17 -3 17 -4 17 -3 18 -3 17 -3 17 -3 17 -3 
18 -3 17 -3 17 -2 18 -3 17 -3 17 -2 17 -3 18 -2 
17 -2 17 -3 17 -2 18 -2 17 -2 17 -2 17 -2 18 -2 
17 -2 17 -2 17 -2 18 -2 17 -1 17 -2 17 -2 18 -1 
17 -2 17 -2 17 -1 18 -2 17 -1 17 -1 17 -2 18 -1 
17 -1 17 -2 17 -1 18 -1 17 -1 17 -1 17 -2 18 -1 
17 -1 17 -1 18 -1 17 -1 17 -1 17 -1 18 -1 17 -1 
17 0 17 -1 18 -1 17 -1 17 -1 17 0 18 -1 17 -1 
17 -1 17 0 18 -1 17 -1 17 0 17 -1 18 -1 17 0 
17 -1 17 0 18 -1 17 0 17 -1 17 0 18 -1 17 0 
17 -1 17 0 18 -1 17 0 17 -1 87 -2 86 -2 86 -1 
86 -2 87 -1 86 -1 86 -1 87 -1 86 0 86 -1 86 -1 
87 0 86 -1 86 0 86 -1 869 4372 141 MP stroke
/c18 { 0.909091 0.000000 1.000000 sr} bdef
c18
87 -346 86 -317 86 -289 87 -264 86 -239 86 -218 86 -196 87 -178 
86 -160 86 -144 87 -130 86 -116 86 -105 86 -93 87 -84 86 -74 
86 -67 87 -59 86 -53 86 -48 86 -41 87 -38 86 -33 86 -29 
87 -26 17 -5 17 -5 17 -5 18 -4 17 -4 17 -5 17 -4 
18 -4 17 -4 17 -4 17 -4 18 -4 17 -3 17 -4 17 -3 
18 -4 17 -3 17 -3 17 -3 18 -3 17 -3 17 -3 17 -3 
18 -3 17 -3 17 -2 18 -3 17 -2 17 -3 17 -2 18 -2 
17 -3 17 -2 17 -2 18 -2 17 -2 17 -2 17 -2 18 -2 
17 -2 17 -2 17 -2 18 -1 17 -2 17 -2 17 -1 18 -2 
17 -2 17 -1 17 -2 18 -1 17 -1 17 -2 17 -1 18 -1 
17 -2 17 -1 17 -1 18 -1 17 -1 17 -2 17 -1 18 -1 
17 -1 17 -1 18 -1 17 -1 17 -1 17 -1 18 0 17 -1 
17 -1 17 -1 18 -1 17 -1 17 0 17 -1 18 -1 17 -1 
17 0 17 -1 18 -1 17 0 17 -1 17 0 18 -1 17 -1 
17 0 17 -1 18 0 17 -1 17 0 17 -1 18 0 17 -1 
17 0 17 -1 18 0 17 -1 17 0 87 -2 86 -2 86 -1 
86 -2 87 -1 86 -1 86 -1 87 -1 86 -1 86 0 86 -1 
87 0 86 -1 86 0 86 -1 869 4372 141 MP stroke
gr

24 w
c18
0 sg
%%IncludeResource: font Helvetica
/Helvetica /WindowsLatin1Encoding 192 FMSR

3389 4715 mt 
(t) s
%%IncludeResource: font Helvetica
/Helvetica /WindowsLatin1Encoding 144 FMSR

3442 4811 mt 
(0) s
%%IncludeResource: font Helvetica
/Helvetica /WindowsLatin1Encoding 192 FMSR

 582 2372 mt 
(S) s
%%IncludeResource: font Helvetica
/Helvetica /WindowsLatin1Encoding 240 FMSR

1976  223 mt 
(S vs. t) s
%%IncludeResource: font Helvetica
/Helvetica /WindowsLatin1Encoding 192 FMSR

2624  343 mt 
(0) s
%%IncludeResource: font Helvetica
/Helvetica /WindowsLatin1Encoding 240 FMSR

2730  223 mt 
( with Various Cutoffs) s
%%IncludeResource: font Helvetica
/Helvetica /WindowsLatin1Encoding 120 FMSR

 852 4417 mt 
( ) s
6030  496 mt 
( ) s
6 w
1 sg
0 2262 1234 0 0 -2262 1198 3664 4 MP
PP
-1234 0 0 2262 1234 0 0 -2262 1198 3664 5 MP stroke
4 w
DO
SO
6 w
0 sg
1198 1402 mt 2432 1402 L
1198 3664 mt 2432 3664 L
2432 3664 mt 2432 1402 L
1198 3664 mt 1198 1402 L
1198 3664 mt 2432 3664 L
1198 3664 mt 1198 1402 L
1198 1402 mt 2432 1402 L
1198 3664 mt 2432 3664 L
2432 3664 mt 2432 1402 L
1198 3664 mt 1198 1402 L
%%IncludeResource: font Symbol
/Symbol /WindowsLatin1Encoding 144 FMSR

1720 1589 mt 
(p) s
%%IncludeResource: font Helvetica
/Helvetica /WindowsLatin1Encoding 144 FMSR

1799 1589 mt 
(/\(0.30R\)) s
gs 1198 1402 1235 2263 rc
24 w
c8
401 0 1278 1536 2 MP stroke
gr

24 w
c8
0 sg
%%IncludeResource: font Symbol
/Symbol /WindowsLatin1Encoding 144 FMSR

1720 1810 mt 
(p) s
%%IncludeResource: font Helvetica
/Helvetica /WindowsLatin1Encoding 144 FMSR

1799 1810 mt 
(/\(0.40R\)) s
gs 1198 1402 1235 2263 rc
c10
401 0 1278 1758 2 MP stroke
gr

c10
0 sg
%%IncludeResource: font Symbol
/Symbol /WindowsLatin1Encoding 144 FMSR

1720 2032 mt 
(p) s
%%IncludeResource: font Helvetica
/Helvetica /WindowsLatin1Encoding 144 FMSR

1799 2032 mt 
(/\(0.50R\)) s
gs 1198 1402 1235 2263 rc
c11
401 0 1278 1979 2 MP stroke
gr

c11
0 sg
%%IncludeResource: font Symbol
/Symbol /WindowsLatin1Encoding 144 FMSR

1720 2253 mt 
(p) s
%%IncludeResource: font Helvetica
/Helvetica /WindowsLatin1Encoding 144 FMSR

1799 2253 mt 
(/\(0.60R\)) s
gs 1198 1402 1235 2263 rc
c12
401 0 1278 2200 2 MP stroke
gr

c12
0 sg
%%IncludeResource: font Symbol
/Symbol /WindowsLatin1Encoding 144 FMSR

1720 2475 mt 
(p) s
%%IncludeResource: font Helvetica
/Helvetica /WindowsLatin1Encoding 144 FMSR

1799 2475 mt 
(/\(0.70R\)) s
gs 1198 1402 1235 2263 rc
c13
401 0 1278 2422 2 MP stroke
gr

c13
0 sg
%%IncludeResource: font Symbol
/Symbol /WindowsLatin1Encoding 144 FMSR

1720 2696 mt 
(p) s
%%IncludeResource: font Helvetica
/Helvetica /WindowsLatin1Encoding 144 FMSR

1799 2696 mt 
(/\(0.80R\)) s
gs 1198 1402 1235 2263 rc
c14
401 0 1278 2643 2 MP stroke
gr

c14
0 sg
%%IncludeResource: font Symbol
/Symbol /WindowsLatin1Encoding 144 FMSR

1720 2918 mt 
(p) s
%%IncludeResource: font Helvetica
/Helvetica /WindowsLatin1Encoding 144 FMSR

1799 2918 mt 
(/\(0.90R\)) s
gs 1198 1402 1235 2263 rc
c15
401 0 1278 2865 2 MP stroke
gr

c15
0 sg
%%IncludeResource: font Symbol
/Symbol /WindowsLatin1Encoding 144 FMSR

1720 3139 mt 
(p) s
%%IncludeResource: font Helvetica
/Helvetica /WindowsLatin1Encoding 144 FMSR

1799 3139 mt 
(/\(1.00R\)) s
gs 1198 1402 1235 2263 rc
c16
401 0 1278 3086 2 MP stroke
gr

c16
0 sg
%%IncludeResource: font Symbol
/Symbol /WindowsLatin1Encoding 144 FMSR

1720 3361 mt 
(p) s
%%IncludeResource: font Helvetica
/Helvetica /WindowsLatin1Encoding 144 FMSR

1799 3361 mt 
(/\(1.10R\)) s
gs 1198 1402 1235 2263 rc
c17
401 0 1278 3307 2 MP stroke
gr

c17
0 sg
%%IncludeResource: font Symbol
/Symbol /WindowsLatin1Encoding 144 FMSR

1720 3582 mt 
(p) s
%%IncludeResource: font Helvetica
/Helvetica /WindowsLatin1Encoding 144 FMSR

1799 3582 mt 
(/\(1.20R\)) s
gs 1198 1402 1235 2263 rc
c18
401 0 1278 3529 2 MP stroke
6 w
gr

6 w
c18

end %%Color Dict

eplot
%%EndObject

epage
end

showpage

%%Trailer
%%EOF
