%!PS-Adobe-3.0 EPSF-3.0
%%Creator: MATLAB, The MathWorks, Inc. Version 8.3.0.532 (R2014a). Operating System: Microsoft Windows 8.1 Pro.
%%Title: F:\research\project\NS\S_varyt0.eps
%%CreationDate: 11/18/2014  22:33:18
%%DocumentNeededFonts: Helvetica
%%DocumentProcessColors: Cyan Magenta Yellow Black
%%LanguageLevel: 2
%%Pages: 1
%%BoundingBox:  -289   120   902   671
%%EndComments

%%BeginProlog
% MathWorks dictionary
/MathWorks 160 dict begin
% definition operators
/bdef {bind def} bind def
/ldef {load def} bind def
/xdef {exch def} bdef
/xstore {exch store} bdef
% operator abbreviations
/c  /clip ldef
/cc /concat ldef
/cp /closepath ldef
/gr /grestore ldef
/gs /gsave ldef
/mt /moveto ldef
/np /newpath ldef
/cm /currentmatrix ldef
/sm /setmatrix ldef
/rm /rmoveto ldef
/rl /rlineto ldef
/s {show newpath} bdef
/sc {setcmykcolor} bdef
/sr /setrgbcolor ldef
/sg /setgray ldef
/w /setlinewidth ldef
/j /setlinejoin ldef
/cap /setlinecap ldef
/rc {rectclip} bdef
/rf {rectfill} bdef
% page state control
/pgsv () def
/bpage {/pgsv save def} bdef
/epage {pgsv restore} bdef
/bplot /gsave ldef
/eplot {stroke grestore} bdef
% orientation switch
/portraitMode 0 def /landscapeMode 1 def /rotateMode 2 def
% coordinate system mappings
/dpi2point 0 def
% font control
/FontSize 0 def
/FMS {/FontSize xstore findfont [FontSize 0 0 FontSize neg 0 0]
  makefont setfont} bdef
/ISOLatin1Encoding where {pop /WindowsLatin1Encoding 256 array bdef
ISOLatin1Encoding WindowsLatin1Encoding copy pop
/.notdef/.notdef/quotesinglbase/florin/quotedblbase/ellipsis/dagger
/daggerdbl/circumflex/perthousand/Scaron/guilsinglleft/OE/.notdef/.notdef
/.notdef/.notdef/quoteleft/quoteright/quotedblleft/quotedblright/bullet
/endash/emdash/tilde/trademark/scaron/guilsinglright/oe/.notdef/.notdef
/Ydieresis WindowsLatin1Encoding 128 32 getinterval astore pop}
{/WindowsLatin1Encoding StandardEncoding bdef} ifelse
/reencode {exch dup where {pop load} {pop StandardEncoding} ifelse
  exch dup 3 1 roll findfont dup length dict begin
  { 1 index /FID ne {def}{pop pop} ifelse } forall
  /Encoding exch def currentdict end definefont pop} bdef
/isroman {findfont /CharStrings get /Agrave known} bdef
/FMSR {3 1 roll 1 index dup isroman {reencode} {pop pop} ifelse
  exch FMS} bdef
/csm {1 dpi2point div -1 dpi2point div scale neg translate
 dup landscapeMode eq {pop -90 rotate}
  {rotateMode eq {90 rotate} if} ifelse} bdef
% line types: solid, dotted, dashed, dotdash
/SO { [] 0 setdash } bdef
/DO { [.5 dpi2point mul 4 dpi2point mul] 0 setdash } bdef
/DA { [6 dpi2point mul] 0 setdash } bdef
/DD { [.5 dpi2point mul 4 dpi2point mul 6 dpi2point mul 4
  dpi2point mul] 0 setdash } bdef
% macros for lines and objects
/L {lineto stroke} bdef
/MP {3 1 roll moveto 1 sub {rlineto} repeat} bdef
/AP {{rlineto} repeat} bdef
/PDlw -1 def
/W {/PDlw currentlinewidth def setlinewidth} def
/PP {closepath eofill} bdef
/DP {closepath stroke} bdef
/MR {4 -2 roll moveto dup  0 exch rlineto exch 0 rlineto
  neg 0 exch rlineto closepath} bdef
/FR {MR stroke} bdef
/PR {MR fill} bdef
/L1i {{currentfile picstr readhexstring pop} image} bdef
/tMatrix matrix def
/MakeOval {newpath tMatrix currentmatrix pop translate scale
0 0 1 0 360 arc tMatrix setmatrix} bdef
/FO {MakeOval stroke} bdef
/PO {MakeOval fill} bdef
/PD {currentlinewidth 2 div 0 360 arc fill
   PDlw -1 eq not {PDlw w /PDlw -1 def} if} def
/FA {newpath tMatrix currentmatrix pop translate scale
  0 0 1 5 -2 roll arc tMatrix setmatrix stroke} bdef
/PA {newpath tMatrix currentmatrix pop	translate 0 0 moveto scale
  0 0 1 5 -2 roll arc closepath tMatrix setmatrix fill} bdef
/FAn {newpath tMatrix currentmatrix pop translate scale
  0 0 1 5 -2 roll arcn tMatrix setmatrix stroke} bdef
/PAn {newpath tMatrix currentmatrix pop translate 0 0 moveto scale
  0 0 1 5 -2 roll arcn closepath tMatrix setmatrix fill} bdef
/vradius 0 def /hradius 0 def /lry 0 def
/lrx 0 def /uly 0 def /ulx 0 def /rad 0 def
/MRR {/vradius xdef /hradius xdef /lry xdef /lrx xdef /uly xdef
  /ulx xdef newpath tMatrix currentmatrix pop ulx hradius add uly
  vradius add translate hradius vradius scale 0 0 1 180 270 arc 
  tMatrix setmatrix lrx hradius sub uly vradius add translate
  hradius vradius scale 0 0 1 270 360 arc tMatrix setmatrix
  lrx hradius sub lry vradius sub translate hradius vradius scale
  0 0 1 0 90 arc tMatrix setmatrix ulx hradius add lry vradius sub
  translate hradius vradius scale 0 0 1 90 180 arc tMatrix setmatrix
  closepath} bdef
/FRR {MRR stroke } bdef
/PRR {MRR fill } bdef
/MlrRR {/lry xdef /lrx xdef /uly xdef /ulx xdef /rad lry uly sub 2 div def
  newpath tMatrix currentmatrix pop ulx rad add uly rad add translate
  rad rad scale 0 0 1 90 270 arc tMatrix setmatrix lrx rad sub lry rad
  sub translate rad rad scale 0 0 1 270 90 arc tMatrix setmatrix
  closepath} bdef
/FlrRR {MlrRR stroke } bdef
/PlrRR {MlrRR fill } bdef
/MtbRR {/lry xdef /lrx xdef /uly xdef /ulx xdef /rad lrx ulx sub 2 div def
  newpath tMatrix currentmatrix pop ulx rad add uly rad add translate
  rad rad scale 0 0 1 180 360 arc tMatrix setmatrix lrx rad sub lry rad
  sub translate rad rad scale 0 0 1 0 180 arc tMatrix setmatrix
  closepath} bdef
/FtbRR {MtbRR stroke } bdef
/PtbRR {MtbRR fill } bdef
/stri 6 array def /dtri 6 array def
/smat 6 array def /dmat 6 array def
/tmat1 6 array def /tmat2 6 array def /dif 3 array def
/asub {/ind2 exch def /ind1 exch def dup dup
  ind1 get exch ind2 get sub exch } bdef
/tri_to_matrix {
  2 0 asub 3 1 asub 4 0 asub 5 1 asub
  dup 0 get exch 1 get 7 -1 roll astore } bdef
/compute_transform {
  dmat dtri tri_to_matrix tmat1 invertmatrix 
  smat stri tri_to_matrix tmat2 concatmatrix } bdef
/ds {stri astore pop} bdef
/dt {dtri astore pop} bdef
/db {2 copy /cols xdef /rows xdef mul dup 3 mul string
  currentfile 
  3 index 0 eq {/ASCIIHexDecode filter}
  {/ASCII85Decode filter 3 index 2 eq {/RunLengthDecode filter} if }
  ifelse exch readstring pop
  dup 0 3 index getinterval /rbmap xdef
  dup 2 index dup getinterval /gbmap xdef
  1 index dup 2 mul exch getinterval /bbmap xdef pop pop}bdef
/it {gs np dtri aload pop moveto lineto lineto cp c
  cols rows 8 compute_transform 
  rbmap gbmap bbmap true 3 colorimage gr}bdef
/il {newpath moveto lineto stroke}bdef
currentdict end def
%%EndProlog

%%BeginSetup
MathWorks begin

0 cap

end
%%EndSetup

%%Page: 1 1
%%BeginPageSetup
%%PageBoundingBox:  -289   120   902   671
MathWorks begin
bpage
%%EndPageSetup

%%BeginObject: obj1
bplot

/dpi2point 12 def
portraitMode -3468 8052 csm

    0     0 14300  6607 rc
88 dict begin %Colortable dictionary
/c0 { 0.000000 0.000000 0.000000 sr} bdef
/c1 { 1.000000 1.000000 1.000000 sr} bdef
/c2 { 0.900000 0.000000 0.000000 sr} bdef
/c3 { 0.000000 0.820000 0.000000 sr} bdef
/c4 { 0.000000 0.000000 0.800000 sr} bdef
/c5 { 0.910000 0.820000 0.320000 sr} bdef
/c6 { 1.000000 0.260000 0.820000 sr} bdef
/c7 { 0.000000 0.820000 0.820000 sr} bdef
c0
1 j
1 sg
   0    0 14301 6608 rf
6 w
0 5384 11083 0 0 -5384 1859 5880 4 MP
PP
-11083 0 0 5384 11083 0 0 -5384 1859 5880 5 MP stroke
4 w
DO
SO
6 w
0 sg
1859 5880 mt 12942 5880 L
1859 5880 mt 1859  496 L
1859 5880 mt 1859 5769 L
%%IncludeResource: font Helvetica
/Helvetica /WindowsLatin1Encoding 144 FMSR

1759 6048 mt 
(2.6) s
3442 5880 mt 3442 5769 L
3342 6048 mt 
(2.8) s
5025 5880 mt 5025 5769 L
4985 6048 mt 
(3) s
6608 5880 mt 6608 5769 L
6508 6048 mt 
(3.2) s
8192 5880 mt 8192 5769 L
8092 6048 mt 
(3.4) s
9775 5880 mt 9775 5769 L
9675 6048 mt 
(3.6) s
11358 5880 mt 11358 5769 L
11258 6048 mt 
(3.8) s
12942 5880 mt 12942 5769 L
12902 6048 mt 
(4) s
1859 5880 mt 1969 5880 L
1744 5933 mt 
(0) s
1859 5207 mt 1969 5207 L
1744 5260 mt 
(1) s
1859 4534 mt 1969 4534 L
1744 4587 mt 
(2) s
1859 3861 mt 1969 3861 L
1744 3914 mt 
(3) s
1859 3188 mt 1969 3188 L
1744 3241 mt 
(4) s
1859 2515 mt 1969 2515 L
1744 2568 mt 
(5) s
1859 1842 mt 1969 1842 L
1744 1895 mt 
(6) s
1859 1169 mt 1969 1169 L
1744 1222 mt 
(7) s
1859  496 mt 1969  496 L
1744  549 mt 
(8) s
1859  442 mt 
(x 10) s
%%IncludeResource: font Helvetica
/Helvetica /WindowsLatin1Encoding 96 FMSR

2131  353 mt 
(4) s
gs 1859 496 11084 5385 rc
24 w
/c8 { 0.466667 0.674510 0.188235 sr} bdef
c8
1 0 159 -23 158 -22 158 -20 159 -18 158 -17 158 -15 159 -14 
158 -12 158 -10 159 -7 158 -6 158 -3 159 0 158 2 158 6 
159 9 158 14 158 18 159 24 158 29 158 37 159 46 158 56 
158 71 159 85 158 103 158 122 159 142 158 163 158 186 159 209 
158 235 158 259 159 284 158 307 158 322 159 327 158 280 158 163 
159 47 158 -63 158 -165 159 -217 158 -201 158 -185 159 -172 158 -160 
158 -147 159 -136 158 -127 158 -117 159 -109 158 -102 158 -96 159 -91 
158 -86 158 -82 159 -77 158 -73 158 -69 159 -67 158 -63 158 -61 
159 -58 158 -55 158 -53 159 -51 158 -50 158 -47 158 -46 1859 4119 72 MP stroke
6 w
gr

c8
1 sg
  36   36 10883 4639 PO
/c9 { 0.000000 0.000000 1.000000 sr} bdef
c9
  36   36 10883 4639 FO
gs 1859 496 11084 5385 rc
gr

0 j
36 47 -36 47 -36 -47 36 -47 6608 1140 5 MP
1 sg
gs
PP
gr
c9
DP
gs 1859 496 11084 5385 rc
24 w
/c10 { 1.000000 0.000000 0.000000 sr} bdef
c10
1 0 159 -28 158 -27 158 -27 159 -25 158 -24 158 -23 159 -21 
158 -21 158 -20 159 -18 158 -17 158 -15 159 -14 158 -13 158 -10 
159 -9 158 -6 158 -5 159 -1 158 2 158 5 159 9 158 14 
158 21 159 26 158 34 158 42 159 48 158 57 158 65 159 72 
158 81 158 90 159 98 158 107 158 116 159 125 158 132 158 140 
159 146 158 152 158 156 159 158 158 157 158 151 159 139 158 80 
158 23 159 -30 158 -78 158 -120 159 -113 158 -106 158 -101 159 -94 
158 -90 158 -84 159 -79 158 -74 158 -71 159 -67 158 -64 158 -61 
159 -58 158 -55 158 -53 159 -51 158 -49 158 -46 158 -45 1859 4106 72 MP stroke
6 w
gr

c10
1 sg
  36   36 9933 4963 PO
c9
  36   36 9933 4963 FO
gs 1859 496 11084 5385 rc
gr

36 47 -36 47 -36 -47 36 -47 5342 2564 5 MP
1 sg
gs
PP
gr
c9
DP
gs 1859 496 11084 5385 rc
24 w
/c11 { 0.870588 0.490196 0.000000 sr} bdef
c11
1 -1 159 -29 158 -30 158 -28 159 -27 158 -27 158 -25 159 -25 
158 -24 158 -23 159 -22 158 -21 158 -20 159 -19 158 -18 158 -16 
159 -15 158 -14 158 -12 159 -10 158 -9 158 -6 159 -4 158 -1 
158 2 159 6 158 10 158 13 159 17 158 21 158 24 159 28 
158 32 158 36 159 39 158 43 158 46 159 50 158 53 158 56 
159 59 158 61 158 65 159 66 158 68 158 70 159 70 158 72 
158 71 159 71 158 70 158 68 159 66 158 62 158 59 159 53 
158 48 158 41 159 25 158 1 158 -21 159 -39 158 -57 158 -61 
159 -59 158 -57 158 -55 159 -52 158 -51 158 -48 158 -47 1859 4084 72 MP stroke
6 w
gr

c11
1 sg
  36   36 9300 5179 PO
c9
  36   36 9300 5179 FO
gs 1859 496 11084 5385 rc
gr

36 47 -36 47 -36 -47 36 -47 3600 3584 5 MP
1 sg
gs
PP
gr
c9
DP
gs 1859 496 11084 5385 rc
gr

0 sg
%%IncludeResource: font Helvetica
/Helvetica /WindowsLatin1Encoding 192 FMSR

7285 6178 mt 
(t) s
%%IncludeResource: font Helvetica
/Helvetica /WindowsLatin1Encoding 144 FMSR

7338 6274 mt 
(0) s
%%IncludeResource: font Helvetica
/Helvetica /WindowsLatin1Encoding 192 FMSR

2044  949 mt 
(S) s
%%IncludeResource: font Helvetica
/Helvetica /WindowsLatin1Encoding 240 FMSR

5804  782 mt 
(S vs. t) s
%%IncludeResource: font Helvetica
/Helvetica /WindowsLatin1Encoding 192 FMSR

6452  902 mt 
(0) s
%%IncludeResource: font Helvetica
/Helvetica /WindowsLatin1Encoding 240 FMSR

6558  782 mt 
( with Various Cutoffs) s
%%IncludeResource: font Helvetica
/Helvetica /WindowsLatin1Encoding 120 FMSR

1842 5923 mt 
( ) s
12926  538 mt 
( ) s
gs 1859 496 11084 5385 rc
DD
24 w
/c12 { 0.831373 0.815686 0.784314 sr} bdef
c12
0 -5384 5342 5880 2 MP stroke
SO
6 w
gr

c12
1 sg
0 813 1309 0 0 -813 11438 1650 4 MP
PP
-1309 0 0 813 1309 0 0 -813 11438 1650 5 MP stroke
4 w
DO
SO
6 w
0 sg
11438  837 mt 12747  837 L
11438 1650 mt 12747 1650 L
12747 1650 mt 12747  837 L
11438 1650 mt 11438  837 L
11438 1650 mt 12747 1650 L
11438 1650 mt 11438  837 L
11438  837 mt 12747  837 L
11438 1650 mt 12747 1650 L
12747 1650 mt 12747  837 L
11438 1650 mt 11438  837 L
%%IncludeResource: font Symbol
/Symbol /WindowsLatin1Encoding 192 FMSR

11907 1056 mt 
(p) s
%%IncludeResource: font Helvetica
/Helvetica /WindowsLatin1Encoding 192 FMSR

12012 1056 mt 
(/\(0.23R\)) s
gs 11438 837 1310 814 rc
24 w
c8
360 0 11510 986 2 MP stroke
gr

24 w
c8
0 sg
%%IncludeResource: font Symbol
/Symbol /WindowsLatin1Encoding 192 FMSR

11907 1313 mt 
(p) s
%%IncludeResource: font Helvetica
/Helvetica /WindowsLatin1Encoding 192 FMSR

12012 1313 mt 
(/\(0.23R\)) s
gs 11438 837 1310 814 rc
c10
360 0 11510 1243 2 MP stroke
gr

c10
0 sg
%%IncludeResource: font Symbol
/Symbol /WindowsLatin1Encoding 192 FMSR

11907 1570 mt 
(p) s
%%IncludeResource: font Helvetica
/Helvetica /WindowsLatin1Encoding 192 FMSR

12012 1570 mt 
(/\(0.24R\)) s
gs 11438 837 1310 814 rc
c11
360 0 11510 1500 2 MP stroke
6 w
gr

6 w
c11
0 sg
297 236 4915 2151 2 MP stroke
-61 -48 66 110 5207 2325 3 MP
PP
-5 -62 -61 -48 66 110 5207 2325 4 MP stroke
61 -9 -122 -39 5273 2435 3 MP
PP
61 48 61 -9 -122 -39 5273 2435 4 MP stroke
c12
-421 0 0 -269 421 0 4518 2175 4 MP
PP
0 sg
4542 2108 mt 
(3.04) s

end %%Color Dict

eplot
%%EndObject

epage
end

showpage

%%Trailer
%%EOF
