%!PS-Adobe-3.0 EPSF-3.0
%%Creator: MATLAB, The MathWorks, Inc. Version 8.3.0.532 (R2014a). Operating System: Microsoft Windows 8.1 Pro.
%%Title: F:\research\project\NS\NS_selectedCutoffs.eps
%%CreationDate: 03/02/2015  21:17:25
%%DocumentNeededFonts: Helvetica
%%DocumentProcessColors: Cyan Magenta Yellow Black
%%LanguageLevel: 2
%%Pages: 1
%%BoundingBox:    27   190   583   600
%%EndComments

%%BeginProlog
% MathWorks dictionary
/MathWorks 160 dict begin
% definition operators
/bdef {bind def} bind def
/ldef {load def} bind def
/xdef {exch def} bdef
/xstore {exch store} bdef
% operator abbreviations
/c  /clip ldef
/cc /concat ldef
/cp /closepath ldef
/gr /grestore ldef
/gs /gsave ldef
/mt /moveto ldef
/np /newpath ldef
/cm /currentmatrix ldef
/sm /setmatrix ldef
/rm /rmoveto ldef
/rl /rlineto ldef
/s {show newpath} bdef
/sc {setcmykcolor} bdef
/sr /setrgbcolor ldef
/sg /setgray ldef
/w /setlinewidth ldef
/j /setlinejoin ldef
/cap /setlinecap ldef
/rc {rectclip} bdef
/rf {rectfill} bdef
% page state control
/pgsv () def
/bpage {/pgsv save def} bdef
/epage {pgsv restore} bdef
/bplot /gsave ldef
/eplot {stroke grestore} bdef
% orientation switch
/portraitMode 0 def /landscapeMode 1 def /rotateMode 2 def
% coordinate system mappings
/dpi2point 0 def
% font control
/FontSize 0 def
/FMS {/FontSize xstore findfont [FontSize 0 0 FontSize neg 0 0]
  makefont setfont} bdef
/ISOLatin1Encoding where {pop /WindowsLatin1Encoding 256 array bdef
ISOLatin1Encoding WindowsLatin1Encoding copy pop
/.notdef/.notdef/quotesinglbase/florin/quotedblbase/ellipsis/dagger
/daggerdbl/circumflex/perthousand/Scaron/guilsinglleft/OE/.notdef/.notdef
/.notdef/.notdef/quoteleft/quoteright/quotedblleft/quotedblright/bullet
/endash/emdash/tilde/trademark/scaron/guilsinglright/oe/.notdef/.notdef
/Ydieresis WindowsLatin1Encoding 128 32 getinterval astore pop}
{/WindowsLatin1Encoding StandardEncoding bdef} ifelse
/reencode {exch dup where {pop load} {pop StandardEncoding} ifelse
  exch dup 3 1 roll findfont dup length dict begin
  { 1 index /FID ne {def}{pop pop} ifelse } forall
  /Encoding exch def currentdict end definefont pop} bdef
/isroman {findfont /CharStrings get /Agrave known} bdef
/FMSR {3 1 roll 1 index dup isroman {reencode} {pop pop} ifelse
  exch FMS} bdef
/csm {1 dpi2point div -1 dpi2point div scale neg translate
 dup landscapeMode eq {pop -90 rotate}
  {rotateMode eq {90 rotate} if} ifelse} bdef
% line types: solid, dotted, dashed, dotdash
/SO { [] 0 setdash } bdef
/DO { [.5 dpi2point mul 4 dpi2point mul] 0 setdash } bdef
/DA { [6 dpi2point mul] 0 setdash } bdef
/DD { [.5 dpi2point mul 4 dpi2point mul 6 dpi2point mul 4
  dpi2point mul] 0 setdash } bdef
% macros for lines and objects
/L {lineto stroke} bdef
/MP {3 1 roll moveto 1 sub {rlineto} repeat} bdef
/AP {{rlineto} repeat} bdef
/PDlw -1 def
/W {/PDlw currentlinewidth def setlinewidth} def
/PP {closepath eofill} bdef
/DP {closepath stroke} bdef
/MR {4 -2 roll moveto dup  0 exch rlineto exch 0 rlineto
  neg 0 exch rlineto closepath} bdef
/FR {MR stroke} bdef
/PR {MR fill} bdef
/L1i {{currentfile picstr readhexstring pop} image} bdef
/tMatrix matrix def
/MakeOval {newpath tMatrix currentmatrix pop translate scale
0 0 1 0 360 arc tMatrix setmatrix} bdef
/FO {MakeOval stroke} bdef
/PO {MakeOval fill} bdef
/PD {currentlinewidth 2 div 0 360 arc fill
   PDlw -1 eq not {PDlw w /PDlw -1 def} if} def
/FA {newpath tMatrix currentmatrix pop translate scale
  0 0 1 5 -2 roll arc tMatrix setmatrix stroke} bdef
/PA {newpath tMatrix currentmatrix pop	translate 0 0 moveto scale
  0 0 1 5 -2 roll arc closepath tMatrix setmatrix fill} bdef
/FAn {newpath tMatrix currentmatrix pop translate scale
  0 0 1 5 -2 roll arcn tMatrix setmatrix stroke} bdef
/PAn {newpath tMatrix currentmatrix pop translate 0 0 moveto scale
  0 0 1 5 -2 roll arcn closepath tMatrix setmatrix fill} bdef
/vradius 0 def /hradius 0 def /lry 0 def
/lrx 0 def /uly 0 def /ulx 0 def /rad 0 def
/MRR {/vradius xdef /hradius xdef /lry xdef /lrx xdef /uly xdef
  /ulx xdef newpath tMatrix currentmatrix pop ulx hradius add uly
  vradius add translate hradius vradius scale 0 0 1 180 270 arc 
  tMatrix setmatrix lrx hradius sub uly vradius add translate
  hradius vradius scale 0 0 1 270 360 arc tMatrix setmatrix
  lrx hradius sub lry vradius sub translate hradius vradius scale
  0 0 1 0 90 arc tMatrix setmatrix ulx hradius add lry vradius sub
  translate hradius vradius scale 0 0 1 90 180 arc tMatrix setmatrix
  closepath} bdef
/FRR {MRR stroke } bdef
/PRR {MRR fill } bdef
/MlrRR {/lry xdef /lrx xdef /uly xdef /ulx xdef /rad lry uly sub 2 div def
  newpath tMatrix currentmatrix pop ulx rad add uly rad add translate
  rad rad scale 0 0 1 90 270 arc tMatrix setmatrix lrx rad sub lry rad
  sub translate rad rad scale 0 0 1 270 90 arc tMatrix setmatrix
  closepath} bdef
/FlrRR {MlrRR stroke } bdef
/PlrRR {MlrRR fill } bdef
/MtbRR {/lry xdef /lrx xdef /uly xdef /ulx xdef /rad lrx ulx sub 2 div def
  newpath tMatrix currentmatrix pop ulx rad add uly rad add translate
  rad rad scale 0 0 1 180 360 arc tMatrix setmatrix lrx rad sub lry rad
  sub translate rad rad scale 0 0 1 0 180 arc tMatrix setmatrix
  closepath} bdef
/FtbRR {MtbRR stroke } bdef
/PtbRR {MtbRR fill } bdef
/stri 6 array def /dtri 6 array def
/smat 6 array def /dmat 6 array def
/tmat1 6 array def /tmat2 6 array def /dif 3 array def
/asub {/ind2 exch def /ind1 exch def dup dup
  ind1 get exch ind2 get sub exch } bdef
/tri_to_matrix {
  2 0 asub 3 1 asub 4 0 asub 5 1 asub
  dup 0 get exch 1 get 7 -1 roll astore } bdef
/compute_transform {
  dmat dtri tri_to_matrix tmat1 invertmatrix 
  smat stri tri_to_matrix tmat2 concatmatrix } bdef
/ds {stri astore pop} bdef
/dt {dtri astore pop} bdef
/db {2 copy /cols xdef /rows xdef mul dup 3 mul string
  currentfile 
  3 index 0 eq {/ASCIIHexDecode filter}
  {/ASCII85Decode filter 3 index 2 eq {/RunLengthDecode filter} if }
  ifelse exch readstring pop
  dup 0 3 index getinterval /rbmap xdef
  dup 2 index dup getinterval /gbmap xdef
  1 index dup 2 mul exch getinterval /bbmap xdef pop pop}bdef
/it {gs np dtri aload pop moveto lineto lineto cp c
  cols rows 8 compute_transform 
  rbmap gbmap bbmap true 3 colorimage gr}bdef
/il {newpath moveto lineto stroke}bdef
currentdict end def
%%EndProlog

%%BeginSetup
MathWorks begin

0 cap

end
%%EndSetup

%%Page: 1 1
%%BeginPageSetup
%%PageBoundingBox:    27   190   583   600
MathWorks begin
bpage
%%EndPageSetup

%%BeginObject: obj1
bplot

/dpi2point 12 def
portraitMode 0324 7200 csm

    0     0  6681  4915 rc
88 dict begin %Colortable dictionary
/c0 { 0.000000 0.000000 0.000000 sr} bdef
/c1 { 1.000000 1.000000 1.000000 sr} bdef
/c2 { 0.900000 0.000000 0.000000 sr} bdef
/c3 { 0.000000 0.820000 0.000000 sr} bdef
/c4 { 0.000000 0.000000 0.800000 sr} bdef
/c5 { 0.910000 0.820000 0.320000 sr} bdef
/c6 { 1.000000 0.260000 0.820000 sr} bdef
/c7 { 0.000000 0.820000 0.820000 sr} bdef
c0
1 j
1 sg
   0    0 6682 4916 rf
6 w
0 3920 5177 0 0 -3920 869 4374 4 MP
PP
-5177 0 0 3920 5177 0 0 -3920 869 4374 5 MP stroke
4 w
DO
SO
6 w
0 sg
 869 4374 mt 6046 4374 L
 869 4374 mt  869  454 L
 869 4374 mt  869 4322 L
%%IncludeResource: font Helvetica
/Helvetica /WindowsLatin1Encoding 120 FMSR

 836 4519 mt 
(1) s
1731 4374 mt 1731 4322 L
1698 4519 mt 
(2) s
2594 4374 mt 2594 4322 L
2561 4519 mt 
(3) s
3457 4374 mt 3457 4322 L
3424 4519 mt 
(4) s
4320 4374 mt 4320 4322 L
4287 4519 mt 
(5) s
5183 4374 mt 5183 4322 L
5150 4519 mt 
(6) s
6046 4374 mt 6046 4322 L
6013 4519 mt 
(7) s
 869 4374 mt  920 4374 L
 768 4418 mt 
(0) s
 869 3938 mt  920 3938 L
 668 3982 mt 
(0.5) s
 869 3502 mt  920 3502 L
 768 3546 mt 
(1) s
 869 3067 mt  920 3067 L
 668 3111 mt 
(1.5) s
 869 2631 mt  920 2631 L
 768 2675 mt 
(2) s
 869 2196 mt  920 2196 L
 668 2240 mt 
(2.5) s
 869 1760 mt  920 1760 L
 768 1804 mt 
(3) s
 869 1325 mt  920 1325 L
 668 1369 mt 
(3.5) s
 869  889 mt  920  889 L
 768  933 mt 
(4) s
 869  454 mt  920  454 L
 668  498 mt 
(4.5) s
 869  400 mt 
(x 10) s
%%IncludeResource: font Helvetica
/Helvetica /WindowsLatin1Encoding 80 FMSR

1095  326 mt 
(5) s
gs 869 454 5178 3921 rc
24 w
/c8 { 1.000000 0.000000 0.000000 sr} bdef
c8
87 -105 86 -97 86 -88 87 -80 86 -73 86 -66 86 -60 87 -54 
86 -49 86 -44 87 -40 86 -35 86 -32 86 -28 87 -26 86 -23 
86 -20 87 -18 86 -16 86 -14 86 -13 87 -12 86 -10 86 -9 
87 -8 17 -1 17 -1 17 -2 18 -1 17 -2 17 -1 17 -1 
18 -1 17 -2 17 -1 17 -1 18 -1 17 -1 17 -1 17 -1 
18 -1 17 -1 17 -1 17 -1 18 -1 17 -1 17 -1 17 -1 
18 -1 17 -1 17 0 18 -1 17 -1 17 -1 17 0 18 -1 
17 -1 17 -1 17 0 18 -1 17 0 17 -1 17 -1 18 0 
17 -1 17 0 17 -1 18 0 17 -1 17 -1 17 0 18 0 
17 -1 17 0 17 -1 18 0 17 -1 17 0 17 -1 18 0 
17 0 17 -1 17 0 18 0 17 -1 17 0 17 0 18 -1 
17 0 17 0 18 -1 17 0 17 0 17 -1 18 0 17 0 
17 0 17 -1 18 0 17 0 17 0 17 -1 18 0 17 0 
17 0 17 0 18 -1 17 0 17 0 17 0 18 0 17 -1 
17 0 17 0 18 0 17 0 17 0 17 -1 18 0 17 0 
17 0 17 0 18 0 17 0 17 -1 87 0 86 -1 86 0 
86 -1 87 0 86 0 86 -1 87 0 86 0 86 0 86 0 
87 -1 86 0 86 0 86 0 869 4373 141 MP stroke
/c9 { 0.500000 1.000000 0.000000 sr} bdef
c9
87 -112 86 -103 86 -93 87 -86 86 -77 86 -71 86 -63 87 -58 
86 -52 86 -46 87 -42 86 -38 86 -34 86 -31 87 -27 86 -24 
86 -22 87 -19 86 -17 86 -16 86 -13 87 -13 86 -10 86 -10 
87 -8 17 -2 17 -2 17 -1 18 -2 17 -1 17 -1 17 -2 
18 -1 17 -1 17 -2 17 -1 18 -1 17 -1 17 -2 17 -1 
18 -1 17 -1 17 -1 17 -1 18 -1 17 -1 17 -1 17 -1 
18 -1 17 -1 17 0 18 -1 17 -1 17 -1 17 -1 18 0 
17 -1 17 -1 17 -1 18 0 17 -1 17 -1 17 0 18 -1 
17 0 17 -1 17 -1 18 0 17 -1 17 0 17 -1 18 0 
17 -1 17 0 17 -1 18 0 17 -1 17 0 17 -1 18 0 
17 0 17 -1 17 0 18 -1 17 0 17 0 17 -1 18 0 
17 0 17 -1 18 0 17 0 17 -1 17 0 18 0 17 -1 
17 0 17 0 18 0 17 -1 17 0 17 0 18 0 17 -1 
17 0 17 0 18 0 17 0 17 -1 17 0 18 0 17 0 
17 0 17 -1 18 0 17 0 17 0 17 0 18 0 17 -1 
17 0 17 0 18 0 17 0 17 0 87 -1 86 0 86 -1 
86 0 87 -1 86 0 86 0 87 -1 86 0 86 0 86 0 
87 -1 86 0 86 0 86 0 869 4373 141 MP stroke
/c10 { 0.000000 1.000000 1.000000 sr} bdef
c10
87 -172 86 -158 86 -143 87 -131 86 -119 86 -109 86 -98 87 -89 
86 -81 86 -73 87 -66 86 -60 86 -54 86 -48 87 -44 86 -39 
86 -36 87 -32 86 -28 86 -26 86 -23 87 -21 86 -18 86 -16 
87 -15 17 -3 17 -2 17 -3 18 -3 17 -2 17 -2 17 -3 
18 -2 17 -2 17 -3 17 -2 18 -2 17 -2 17 -2 17 -2 
18 -2 17 -2 17 -2 17 -1 18 -2 17 -2 17 -1 17 -2 
18 -2 17 -1 17 -2 18 -1 17 -2 17 -1 17 -1 18 -2 
17 -1 17 -1 17 -2 18 -1 17 -1 17 -1 17 -1 18 -1 
17 -1 17 -1 17 -2 18 -1 17 0 17 -1 17 -1 18 -1 
17 -1 17 -1 17 -1 18 -1 17 0 17 -1 17 -1 18 -1 
17 0 17 -1 17 -1 18 0 17 -1 17 -1 17 0 18 -1 
17 0 17 -1 18 -1 17 0 17 -1 17 0 18 -1 17 0 
17 -1 17 0 18 0 17 -1 17 0 17 -1 18 0 17 -1 
17 0 17 0 18 -1 17 0 17 0 17 -1 18 0 17 0 
17 -1 17 0 18 0 17 0 17 -1 17 0 18 0 17 0 
17 -1 17 0 18 0 17 0 17 -1 87 -1 86 0 86 -1 
86 -1 87 0 86 -1 86 0 87 -1 86 0 86 0 86 0 
87 0 86 -1 86 0 86 0 869 4373 141 MP stroke
/c11 { 0.500000 0.000000 1.000000 sr} bdef
c11
87 -330 86 -304 86 -280 87 -257 86 -237 86 -219 86 -201 87 -184 
86 -170 86 -156 87 -143 86 -131 86 -120 86 -109 87 -100 86 -91 
86 -83 87 -75 86 -69 86 -61 86 -56 87 -51 86 -46 86 -41 
87 -37 17 -7 17 -6 17 -7 18 -6 17 -7 17 -6 17 -6 
18 -6 17 -5 17 -6 17 -5 18 -6 17 -5 17 -5 17 -5 
18 -5 17 -4 17 -5 17 -5 18 -4 17 -4 17 -4 17 -4 
18 -4 17 -4 17 -3 18 -4 17 -3 17 -3 17 -3 18 -3 
17 -3 17 -3 17 -2 18 -3 17 -2 17 -2 17 -2 18 -1 
17 -2 17 -1 17 0 18 -1 17 0 17 0 17 1 18 1 
17 2 17 2 17 4 18 4 17 6 17 6 17 8 18 8 
17 9 17 11 17 12 18 13 17 14 17 15 17 17 18 17 
17 18 17 20 18 20 17 21 17 21 17 21 18 21 17 19 
17 18 17 14 18 -17 17 -17 17 -16 17 -15 18 -14 17 -14 
17 -12 17 -12 18 -11 17 -11 17 -10 17 -9 18 -9 17 -9 
17 -8 17 -7 18 -8 17 -7 17 -6 17 -7 18 -6 17 -6 
17 -6 17 -5 18 -6 17 -5 17 -5 87 -23 86 -19 86 -18 
86 -16 87 -14 86 -13 86 -11 87 -11 86 -9 86 -9 86 -8 
87 -7 86 -6 86 -6 86 -6 869 4345 141 MP stroke
6 w
gr

c11
1 sg
  36   36 3129 4254 PO
/c12 { 0.000000 0.000000 1.000000 sr} bdef
c12
  36   36 3129 4254 FO
gs 869 454 5178 3921 rc
gr

0 j
36 47 -36 47 -36 -47 36 -47 2629 3958 5 MP
1 sg
gs
PP
gr
c12
DP
gs 869 454 5178 3921 rc
gr

0 sg
%%IncludeResource: font Helvetica
/Helvetica /WindowsLatin1Encoding 192 FMSR

3389 4715 mt 
(t) s
%%IncludeResource: font Helvetica
/Helvetica /WindowsLatin1Encoding 144 FMSR

3442 4811 mt 
(0) s
%%IncludeResource: font Helvetica
/Helvetica /WindowsLatin1Encoding 192 FMSR

 549 2372 mt 
(S) s
%%IncludeResource: font Helvetica
/Helvetica /WindowsLatin1Encoding 240 FMSR

1976  223 mt 
(S vs. t) s
%%IncludeResource: font Helvetica
/Helvetica /WindowsLatin1Encoding 192 FMSR

2624  343 mt 
(0) s
%%IncludeResource: font Helvetica
/Helvetica /WindowsLatin1Encoding 240 FMSR

2730  223 mt 
( with Various Cutoffs) s
%%IncludeResource: font Helvetica
/Helvetica /WindowsLatin1Encoding 120 FMSR

 852 4417 mt 
( ) s
6030  496 mt 
( ) s
1 sg
0 822 1107 0 0 -822 1103 3341 4 MP
PP
-1107 0 0 822 1107 0 0 -822 1103 3341 5 MP stroke
4 w
DO
SO
6 w
0 sg
1103 2519 mt 2210 2519 L
1103 3341 mt 2210 3341 L
2210 3341 mt 2210 2519 L
1103 3341 mt 1103 2519 L
1103 3341 mt 2210 3341 L
1103 3341 mt 1103 2519 L
1103 2519 mt 2210 2519 L
1103 3341 mt 2210 3341 L
2210 3341 mt 2210 2519 L
1103 3341 mt 1103 2519 L
%%IncludeResource: font Symbol
/Symbol /WindowsLatin1Encoding 144 FMSR

1571 2690 mt 
(p) s
%%IncludeResource: font Helvetica
/Helvetica /WindowsLatin1Encoding 144 FMSR

1650 2690 mt 
(/\(1.20R\)) s
gs 1103 2519 1108 823 rc
24 w
c8
360 0 1174 2637 2 MP stroke
gr

24 w
c8
0 sg
%%IncludeResource: font Symbol
/Symbol /WindowsLatin1Encoding 144 FMSR

1571 2885 mt 
(p) s
%%IncludeResource: font Helvetica
/Helvetica /WindowsLatin1Encoding 144 FMSR

1650 2885 mt 
(/\(1.00R\)) s
gs 1103 2519 1108 823 rc
c9
360 0 1174 2832 2 MP stroke
gr

c9
0 sg
%%IncludeResource: font Symbol
/Symbol /WindowsLatin1Encoding 144 FMSR

1571 3080 mt 
(p) s
%%IncludeResource: font Helvetica
/Helvetica /WindowsLatin1Encoding 144 FMSR

1650 3080 mt 
(/\(0.50R\)) s
gs 1103 2519 1108 823 rc
c10
360 0 1174 3027 2 MP stroke
gr

c10
0 sg
%%IncludeResource: font Symbol
/Symbol /WindowsLatin1Encoding 144 FMSR

1571 3275 mt 
(p) s
%%IncludeResource: font Helvetica
/Helvetica /WindowsLatin1Encoding 144 FMSR

1650 3275 mt 
(/\(0.23R\)) s
gs 1103 2519 1108 823 rc
c11
360 0 1174 3222 2 MP stroke
6 w
gr

6 w
c11

end %%Color Dict

eplot
%%EndObject

epage
end

showpage

%%Trailer
%%EOF
