%!PS-Adobe-3.0 EPSF-3.0
%%Creator: MATLAB, The MathWorks, Inc. Version 8.3.0.532 (R2014a). Operating System: Microsoft Windows 8.1 Pro.
%%Title: F:\research\project\NS\Sa1rhotest.eps
%%CreationDate: 03/02/2015  21:19:14
%%DocumentNeededFonts: Helvetica
%%DocumentProcessColors: Cyan Magenta Yellow Black
%%LanguageLevel: 2
%%Pages: 1
%%BoundingBox:    27   190   583   600
%%EndComments

%%BeginProlog
% MathWorks dictionary
/MathWorks 160 dict begin
% definition operators
/bdef {bind def} bind def
/ldef {load def} bind def
/xdef {exch def} bdef
/xstore {exch store} bdef
% operator abbreviations
/c  /clip ldef
/cc /concat ldef
/cp /closepath ldef
/gr /grestore ldef
/gs /gsave ldef
/mt /moveto ldef
/np /newpath ldef
/cm /currentmatrix ldef
/sm /setmatrix ldef
/rm /rmoveto ldef
/rl /rlineto ldef
/s {show newpath} bdef
/sc {setcmykcolor} bdef
/sr /setrgbcolor ldef
/sg /setgray ldef
/w /setlinewidth ldef
/j /setlinejoin ldef
/cap /setlinecap ldef
/rc {rectclip} bdef
/rf {rectfill} bdef
% page state control
/pgsv () def
/bpage {/pgsv save def} bdef
/epage {pgsv restore} bdef
/bplot /gsave ldef
/eplot {stroke grestore} bdef
% orientation switch
/portraitMode 0 def /landscapeMode 1 def /rotateMode 2 def
% coordinate system mappings
/dpi2point 0 def
% font control
/FontSize 0 def
/FMS {/FontSize xstore findfont [FontSize 0 0 FontSize neg 0 0]
  makefont setfont} bdef
/ISOLatin1Encoding where {pop /WindowsLatin1Encoding 256 array bdef
ISOLatin1Encoding WindowsLatin1Encoding copy pop
/.notdef/.notdef/quotesinglbase/florin/quotedblbase/ellipsis/dagger
/daggerdbl/circumflex/perthousand/Scaron/guilsinglleft/OE/.notdef/.notdef
/.notdef/.notdef/quoteleft/quoteright/quotedblleft/quotedblright/bullet
/endash/emdash/tilde/trademark/scaron/guilsinglright/oe/.notdef/.notdef
/Ydieresis WindowsLatin1Encoding 128 32 getinterval astore pop}
{/WindowsLatin1Encoding StandardEncoding bdef} ifelse
/reencode {exch dup where {pop load} {pop StandardEncoding} ifelse
  exch dup 3 1 roll findfont dup length dict begin
  { 1 index /FID ne {def}{pop pop} ifelse } forall
  /Encoding exch def currentdict end definefont pop} bdef
/isroman {findfont /CharStrings get /Agrave known} bdef
/FMSR {3 1 roll 1 index dup isroman {reencode} {pop pop} ifelse
  exch FMS} bdef
/csm {1 dpi2point div -1 dpi2point div scale neg translate
 dup landscapeMode eq {pop -90 rotate}
  {rotateMode eq {90 rotate} if} ifelse} bdef
% line types: solid, dotted, dashed, dotdash
/SO { [] 0 setdash } bdef
/DO { [.5 dpi2point mul 4 dpi2point mul] 0 setdash } bdef
/DA { [6 dpi2point mul] 0 setdash } bdef
/DD { [.5 dpi2point mul 4 dpi2point mul 6 dpi2point mul 4
  dpi2point mul] 0 setdash } bdef
% macros for lines and objects
/L {lineto stroke} bdef
/MP {3 1 roll moveto 1 sub {rlineto} repeat} bdef
/AP {{rlineto} repeat} bdef
/PDlw -1 def
/W {/PDlw currentlinewidth def setlinewidth} def
/PP {closepath eofill} bdef
/DP {closepath stroke} bdef
/MR {4 -2 roll moveto dup  0 exch rlineto exch 0 rlineto
  neg 0 exch rlineto closepath} bdef
/FR {MR stroke} bdef
/PR {MR fill} bdef
/L1i {{currentfile picstr readhexstring pop} image} bdef
/tMatrix matrix def
/MakeOval {newpath tMatrix currentmatrix pop translate scale
0 0 1 0 360 arc tMatrix setmatrix} bdef
/FO {MakeOval stroke} bdef
/PO {MakeOval fill} bdef
/PD {currentlinewidth 2 div 0 360 arc fill
   PDlw -1 eq not {PDlw w /PDlw -1 def} if} def
/FA {newpath tMatrix currentmatrix pop translate scale
  0 0 1 5 -2 roll arc tMatrix setmatrix stroke} bdef
/PA {newpath tMatrix currentmatrix pop	translate 0 0 moveto scale
  0 0 1 5 -2 roll arc closepath tMatrix setmatrix fill} bdef
/FAn {newpath tMatrix currentmatrix pop translate scale
  0 0 1 5 -2 roll arcn tMatrix setmatrix stroke} bdef
/PAn {newpath tMatrix currentmatrix pop translate 0 0 moveto scale
  0 0 1 5 -2 roll arcn closepath tMatrix setmatrix fill} bdef
/vradius 0 def /hradius 0 def /lry 0 def
/lrx 0 def /uly 0 def /ulx 0 def /rad 0 def
/MRR {/vradius xdef /hradius xdef /lry xdef /lrx xdef /uly xdef
  /ulx xdef newpath tMatrix currentmatrix pop ulx hradius add uly
  vradius add translate hradius vradius scale 0 0 1 180 270 arc 
  tMatrix setmatrix lrx hradius sub uly vradius add translate
  hradius vradius scale 0 0 1 270 360 arc tMatrix setmatrix
  lrx hradius sub lry vradius sub translate hradius vradius scale
  0 0 1 0 90 arc tMatrix setmatrix ulx hradius add lry vradius sub
  translate hradius vradius scale 0 0 1 90 180 arc tMatrix setmatrix
  closepath} bdef
/FRR {MRR stroke } bdef
/PRR {MRR fill } bdef
/MlrRR {/lry xdef /lrx xdef /uly xdef /ulx xdef /rad lry uly sub 2 div def
  newpath tMatrix currentmatrix pop ulx rad add uly rad add translate
  rad rad scale 0 0 1 90 270 arc tMatrix setmatrix lrx rad sub lry rad
  sub translate rad rad scale 0 0 1 270 90 arc tMatrix setmatrix
  closepath} bdef
/FlrRR {MlrRR stroke } bdef
/PlrRR {MlrRR fill } bdef
/MtbRR {/lry xdef /lrx xdef /uly xdef /ulx xdef /rad lrx ulx sub 2 div def
  newpath tMatrix currentmatrix pop ulx rad add uly rad add translate
  rad rad scale 0 0 1 180 360 arc tMatrix setmatrix lrx rad sub lry rad
  sub translate rad rad scale 0 0 1 0 180 arc tMatrix setmatrix
  closepath} bdef
/FtbRR {MtbRR stroke } bdef
/PtbRR {MtbRR fill } bdef
/stri 6 array def /dtri 6 array def
/smat 6 array def /dmat 6 array def
/tmat1 6 array def /tmat2 6 array def /dif 3 array def
/asub {/ind2 exch def /ind1 exch def dup dup
  ind1 get exch ind2 get sub exch } bdef
/tri_to_matrix {
  2 0 asub 3 1 asub 4 0 asub 5 1 asub
  dup 0 get exch 1 get 7 -1 roll astore } bdef
/compute_transform {
  dmat dtri tri_to_matrix tmat1 invertmatrix 
  smat stri tri_to_matrix tmat2 concatmatrix } bdef
/ds {stri astore pop} bdef
/dt {dtri astore pop} bdef
/db {2 copy /cols xdef /rows xdef mul dup 3 mul string
  currentfile 
  3 index 0 eq {/ASCIIHexDecode filter}
  {/ASCII85Decode filter 3 index 2 eq {/RunLengthDecode filter} if }
  ifelse exch readstring pop
  dup 0 3 index getinterval /rbmap xdef
  dup 2 index dup getinterval /gbmap xdef
  1 index dup 2 mul exch getinterval /bbmap xdef pop pop}bdef
/it {gs np dtri aload pop moveto lineto lineto cp c
  cols rows 8 compute_transform 
  rbmap gbmap bbmap true 3 colorimage gr}bdef
/il {newpath moveto lineto stroke}bdef
currentdict end def
%%EndProlog

%%BeginSetup
MathWorks begin

0 cap

end
%%EndSetup

%%Page: 1 1
%%BeginPageSetup
%%PageBoundingBox:    27   190   583   600
MathWorks begin
bpage
%%EndPageSetup

%%BeginObject: obj1
bplot

/dpi2point 12 def
portraitMode 0324 7200 csm

    0     0  6681  4915 rc
89 dict begin %Colortable dictionary
/c0 { 0.000000 0.000000 0.000000 sr} bdef
/c1 { 1.000000 1.000000 1.000000 sr} bdef
/c2 { 0.900000 0.000000 0.000000 sr} bdef
/c3 { 0.000000 0.820000 0.000000 sr} bdef
/c4 { 0.000000 0.000000 0.800000 sr} bdef
/c5 { 0.910000 0.820000 0.320000 sr} bdef
/c6 { 1.000000 0.260000 0.820000 sr} bdef
/c7 { 0.000000 0.820000 0.820000 sr} bdef
c0
1 j
1 sg
   0    0 6682 4916 rf
6 w
0 3832 5177 0 0 -3832 869 4403 4 MP
PP
-5177 0 0 3832 5177 0 0 -3832 869 4403 5 MP stroke
4 w
DO
SO
6 w
0 sg
 869 4403 mt 6046 4403 L
 869 4403 mt  869  571 L
 869 4403 mt  869 4351 L
%%IncludeResource: font Helvetica
/Helvetica /WindowsLatin1Encoding 120 FMSR

 836 4548 mt 
(2) s
1516 4403 mt 1516 4351 L
1433 4548 mt 
(2.5) s
2163 4403 mt 2163 4351 L
2130 4548 mt 
(3) s
2810 4403 mt 2810 4351 L
2727 4548 mt 
(3.5) s
3457 4403 mt 3457 4351 L
3424 4548 mt 
(4) s
4104 4403 mt 4104 4351 L
4021 4548 mt 
(4.5) s
4751 4403 mt 4751 4351 L
4718 4548 mt 
(5) s
5398 4403 mt 5398 4351 L
5315 4548 mt 
(5.5) s
6046 4403 mt 6046 4351 L
6013 4548 mt 
(6) s
 869 4403 mt  920 4403 L
 634 4447 mt 
(140) s
 869 3855 mt  920 3855 L
 634 3899 mt 
(160) s
 869 3308 mt  920 3308 L
 634 3352 mt 
(180) s
 869 2760 mt  920 2760 L
 634 2804 mt 
(200) s
 869 2213 mt  920 2213 L
 634 2257 mt 
(220) s
 869 1665 mt  920 1665 L
 634 1709 mt 
(240) s
 869 1118 mt  920 1118 L
 634 1162 mt 
(260) s
 869  571 mt  920  571 L
 634  615 mt 
(280) s
gs 869 571 5178 3833 rc
24 w
/c8 { 1.000000 0.000000 0.000000 sr} bdef
c8
1 -1 130 -76 129 -80 130 -84 129 -87 130 -90 129 -92 129 -93 
130 -95 129 -96 130 -97 129 -97 130 -96 129 -97 129 -95 130 -93 
26 -19 26 -19 26 -18 25 -18 26 -18 26 -19 26 -18 26 -18 
26 -18 26 -17 26 -18 25 -17 26 -18 26 -17 26 -17 26 -18 
26 -17 26 -16 26 -17 26 -17 25 -16 26 -17 26 -16 26 -16 
26 -16 26 -15 26 -16 26 -15 26 -15 25 -16 26 -14 26 -15 
26 -15 26 -14 26 -14 26 -14 26 -14 26 -14 25 -13 26 -13 
26 -13 26 -13 26 -12 26 -13 26 -12 26 -11 25 -12 26 -11 
26 -12 26 -10 26 -11 26 -10 26 -10 26 -10 26 -10 25 -9 
26 -9 26 -9 26 -8 26 -8 26 -8 26 -7 26 -7 26 -7 
25 -7 26 -6 26 -6 26 -5 26 -5 26 -5 26 -4 26 -4 
25 -4 26 -3 26 -3 26 -2 26 -2 26 -2 26 -1 26 -1 
26 0 25 0 26 1 26 1 26 2 26 2 26 2 26 3 
26 4 26 4 25 5 26 5 26 6 26 7 26 7 26 8 
26 8 26 9 25 9 26 11 130 62 129 82 130 104 129 131 
129 159 869 2719 122 MP stroke
6 w
gr

c8
1 sg
  36   36 2007 3351 PO
/c9 { 0.000000 0.000000 1.000000 sr} bdef
c9
  36   36 2007 3351 FO
gs 869 571 5178 3833 rc
24 w
/c10 { 1.000000 0.545455 0.000000 sr} bdef
c10
1 -1 130 -75 129 -78 130 -81 129 -84 130 -85 129 -88 129 -88 
130 -90 129 -89 130 -90 129 -89 130 -88 129 -88 129 -86 130 -83 
26 -17 26 -16 26 -17 25 -16 26 -16 26 -16 26 -16 26 -16 
26 -15 26 -16 26 -15 25 -16 26 -15 26 -15 26 -15 26 -15 
26 -14 26 -15 26 -14 26 -14 25 -14 26 -14 26 -14 26 -14 
26 -13 26 -13 26 -14 26 -13 26 -12 25 -13 26 -12 26 -13 
26 -12 26 -11 26 -12 26 -11 26 -12 26 -11 25 -11 26 -10 
26 -11 26 -10 26 -10 26 -9 26 -10 26 -9 25 -9 26 -9 
26 -8 26 -9 26 -8 26 -7 26 -8 26 -7 26 -7 25 -7 
26 -6 26 -6 26 -6 26 -5 26 -6 26 -4 26 -5 26 -4 
25 -4 26 -4 26 -3 26 -3 26 -2 26 -3 26 -1 26 -2 
25 -1 26 -1 26 0 26 0 26 0 26 1 26 2 26 1 
26 3 25 2 26 3 26 4 26 4 26 4 26 5 26 6 
26 6 26 6 25 7 26 8 26 8 26 9 26 9 26 10 
26 11 26 11 25 12 26 12 130 73 129 91 130 114 129 138 
129 168 869 2864 122 MP stroke
6 w
gr

c10
1 sg
  36   36 2163 3592 PO
c9
  36   36 2163 3592 FO
gs 869 571 5178 3833 rc
24 w
/c11 { 0.909091 1.000000 0.000000 sr} bdef
c11
1 0 130 -73 129 -76 130 -79 129 -81 130 -82 129 -84 129 -84 
130 -85 129 -85 130 -84 129 -83 130 -83 129 -81 129 -79 130 -77 
26 -15 26 -15 26 -15 25 -14 26 -15 26 -15 26 -14 26 -14 
26 -15 26 -14 26 -13 25 -14 26 -14 26 -13 26 -14 26 -13 
26 -13 26 -13 26 -13 26 -13 25 -12 26 -13 26 -12 26 -12 
26 -12 26 -11 26 -12 26 -11 26 -11 25 -11 26 -11 26 -11 
26 -10 26 -11 26 -10 26 -9 26 -10 26 -10 25 -9 26 -9 
26 -9 26 -8 26 -9 26 -8 26 -8 26 -7 25 -8 26 -7 
26 -7 26 -7 26 -6 26 -6 26 -6 26 -6 26 -5 25 -5 
26 -5 26 -5 26 -4 26 -4 26 -4 26 -3 26 -3 26 -3 
25 -2 26 -2 26 -2 26 -2 26 -1 26 0 26 -1 26 0 
25 0 26 1 26 1 26 1 26 2 26 3 26 2 26 3 
26 4 25 4 26 4 26 5 26 5 26 6 26 6 26 7 
26 7 26 7 25 9 26 8 26 10 26 9 26 11 26 11 
26 11 26 13 25 12 26 14 130 77 129 96 130 117 129 141 
129 170 869 2991 122 MP stroke
6 w
gr

c11
1 sg
  36   36 2240 3768 PO
c9
  36   36 2240 3768 FO
gs 869 571 5178 3833 rc
24 w
/c12 { 0.363636 1.000000 0.000000 sr} bdef
c12
1 -1 130 -71 129 -74 130 -76 129 -79 130 -79 129 -80 129 -81 
130 -81 129 -80 130 -80 129 -79 130 -77 129 -76 129 -73 130 -72 
26 -13 26 -14 26 -14 25 -14 26 -13 26 -13 26 -14 26 -13 
26 -13 26 -13 26 -12 25 -13 26 -12 26 -13 26 -12 26 -12 
26 -12 26 -12 26 -11 26 -12 25 -11 26 -11 26 -11 26 -11 
26 -10 26 -11 26 -10 26 -10 26 -10 25 -10 26 -10 26 -9 
26 -9 26 -9 26 -9 26 -9 26 -8 26 -8 25 -8 26 -8 
26 -8 26 -7 26 -7 26 -7 26 -7 26 -6 25 -6 26 -6 
26 -6 26 -6 26 -5 26 -5 26 -5 26 -4 26 -5 25 -4 
26 -3 26 -4 26 -3 26 -3 26 -2 26 -3 26 -2 26 -1 
25 -2 26 -1 26 0 26 -1 26 0 26 0 26 1 26 1 
25 1 26 2 26 2 26 2 26 3 26 3 26 4 26 4 
26 4 25 5 26 5 26 6 26 6 26 6 26 7 26 8 
26 8 26 8 25 9 26 9 26 10 26 11 26 11 26 12 
26 12 26 13 25 13 26 14 130 80 129 98 130 119 129 143 
129 170 869 3110 122 MP stroke
6 w
gr

c12
1 sg
  36   36 2318 3920 PO
c9
  36   36 2318 3920 FO
gs 869 571 5178 3833 rc
24 w
/c13 { 0.000000 1.000000 0.181818 sr} bdef
c13
1 0 130 -70 129 -73 130 -75 129 -76 130 -78 129 -78 129 -78 
130 -78 129 -78 130 -77 129 -76 130 -74 129 -72 129 -70 130 -68 
26 -13 26 -13 26 -13 25 -13 26 -13 26 -12 26 -13 26 -12 
26 -13 26 -12 26 -12 25 -12 26 -11 26 -12 26 -11 26 -12 
26 -11 26 -11 26 -11 26 -10 25 -11 26 -10 26 -11 26 -10 
26 -10 26 -9 26 -10 26 -9 26 -10 25 -9 26 -8 26 -9 
26 -9 26 -8 26 -8 26 -8 26 -8 26 -7 25 -7 26 -8 
26 -6 26 -7 26 -7 26 -6 26 -6 26 -6 25 -5 26 -6 
26 -5 26 -5 26 -4 26 -5 26 -4 26 -4 26 -3 25 -4 
26 -3 26 -3 26 -2 26 -2 26 -2 26 -2 26 -2 26 -1 
25 -1 26 0 26 0 26 0 26 0 26 1 26 1 26 2 
25 1 26 2 26 3 26 3 26 3 26 4 26 4 26 4 
26 5 25 5 26 6 26 6 26 6 26 7 26 7 26 8 
26 8 26 9 25 9 26 10 26 11 26 10 26 12 26 12 
26 12 26 13 25 14 26 14 130 81 129 99 130 118 129 142 
129 170 869 3203 122 MP stroke
6 w
gr

c13
1 sg
  36   36 2370 4025 PO
c9
  36   36 2370 4025 FO
gs 869 571 5178 3833 rc
gr

0 sg
%%IncludeResource: font Helvetica
/Helvetica /WindowsLatin1Encoding 192 FMSR

3389 4744 mt 
(t) s
%%IncludeResource: font Helvetica
/Helvetica /WindowsLatin1Encoding 144 FMSR

3442 4840 mt 
(0) s
%%IncludeResource: font Helvetica
/Helvetica /WindowsLatin1Encoding 192 FMSR

 380 2360 mt 
(S) s
%%IncludeResource: font Symbol
/Symbol /WindowsLatin1Encoding 192 FMSR

 508 2360 mt 
(r) s
%%IncludeResource: font Helvetica
/Helvetica /WindowsLatin1Encoding 144 FMSR

 613 2456 mt 
(0) s
 613 2264 mt 
(-1) s
%%IncludeResource: font Helvetica
/Helvetica /WindowsLatin1Encoding 240 FMSR

1802  340 mt 
(S) s
%%IncludeResource: font Symbol
/Symbol /WindowsLatin1Encoding 240 FMSR

1962  340 mt 
(r) s
%%IncludeResource: font Helvetica
/Helvetica /WindowsLatin1Encoding 192 FMSR

2093  460 mt 
(0) s
2093  220 mt 
(-1) s
%%IncludeResource: font Helvetica
/Helvetica /WindowsLatin1Encoding 240 FMSR

2311  340 mt 
( vs. t) s
%%IncludeResource: font Helvetica
/Helvetica /WindowsLatin1Encoding 192 FMSR

2799  460 mt 
(0) s
%%IncludeResource: font Helvetica
/Helvetica /WindowsLatin1Encoding 240 FMSR

2905  340 mt 
( with Various Cutoffs) s
%%IncludeResource: font Helvetica
/Helvetica /WindowsLatin1Encoding 120 FMSR

 852 4446 mt 
( ) s
6030  613 mt 
( ) s
1 sg
0 1152 1234 0 0 -1152 1119 2120 4 MP
PP
-1234 0 0 1152 1234 0 0 -1152 1119 2120 5 MP stroke
4 w
DO
SO
6 w
0 sg
1119  968 mt 2353  968 L
1119 2120 mt 2353 2120 L
2353 2120 mt 2353  968 L
1119 2120 mt 1119  968 L
1119 2120 mt 2353 2120 L
1119 2120 mt 1119  968 L
1119  968 mt 2353  968 L
1119 2120 mt 2353 2120 L
2353 2120 mt 2353  968 L
1119 2120 mt 1119  968 L
%%IncludeResource: font Symbol
/Symbol /WindowsLatin1Encoding 144 FMSR

1641 1155 mt 
(p) s
%%IncludeResource: font Helvetica
/Helvetica /WindowsLatin1Encoding 144 FMSR

1720 1155 mt 
(/\(0.80R\)) s
gs 1119 968 1235 1153 rc
24 w
c8
401 0 1199 1102 2 MP stroke
gr

24 w
c8
0 sg
%%IncludeResource: font Symbol
/Symbol /WindowsLatin1Encoding 144 FMSR

1641 1376 mt 
(p) s
%%IncludeResource: font Helvetica
/Helvetica /WindowsLatin1Encoding 144 FMSR

1720 1376 mt 
(/\(0.90R\)) s
gs 1119 968 1235 1153 rc
c10
401 0 1199 1323 2 MP stroke
gr

c10
0 sg
%%IncludeResource: font Symbol
/Symbol /WindowsLatin1Encoding 144 FMSR

1641 1597 mt 
(p) s
%%IncludeResource: font Helvetica
/Helvetica /WindowsLatin1Encoding 144 FMSR

1720 1597 mt 
(/\(1.00R\)) s
gs 1119 968 1235 1153 rc
c11
401 0 1199 1544 2 MP stroke
gr

c11
0 sg
%%IncludeResource: font Symbol
/Symbol /WindowsLatin1Encoding 144 FMSR

1641 1817 mt 
(p) s
%%IncludeResource: font Helvetica
/Helvetica /WindowsLatin1Encoding 144 FMSR

1720 1817 mt 
(/\(1.10R\)) s
gs 1119 968 1235 1153 rc
c12
401 0 1199 1764 2 MP stroke
gr

c12
0 sg
%%IncludeResource: font Symbol
/Symbol /WindowsLatin1Encoding 144 FMSR

1641 2038 mt 
(p) s
%%IncludeResource: font Helvetica
/Helvetica /WindowsLatin1Encoding 144 FMSR

1720 2038 mt 
(/\(1.20R\)) s
gs 1119 968 1235 1153 rc
c13
401 0 1199 1985 2 MP stroke
6 w
gr

6 w
c13

end %%Color Dict

eplot
%%EndObject

epage
end

showpage

%%Trailer
%%EOF
