PWD F:/research/project/NS
INPUT C:/Users/Nan/AppData/Local/MiKTeX/2.9/miktex/data/le/pdftex/pdflatex.fmt
INPUT F:/research/project/NS/ns.tex
OUTPUT F:/research/project/NS/Output/ns.log
INPUT E:/coding/MiKTeX 2.9/tex/latex/revtex/revtex4-1.cls
INPUT E:/coding/MiKTeX 2.9/tex/latex/revtex/revtex4-1.cls
INPUT E:/coding/MiKTeX 2.9/tex/latex/revtex/aps4-1.rtx
INPUT E:/coding/MiKTeX 2.9/tex/latex/revtex/aps4-1.rtx
INPUT E:/coding/MiKTeX 2.9/tex/latex/revtex/aps4-1.rtx
INPUT E:/coding/MiKTeX 2.9/tex/latex/revtex/aps10pt4-1.rtx
INPUT E:/coding/MiKTeX 2.9/tex/latex/revtex/aps10pt4-1.rtx
INPUT E:/coding/MiKTeX 2.9/tex/latex/textcase/textcase.sty
INPUT E:/coding/MiKTeX 2.9/tex/latex/textcase/textcase.sty
INPUT E:/coding/MiKTeX 2.9/tex/latex/amsfonts/amssymb.sty
INPUT E:/coding/MiKTeX 2.9/tex/latex/amsfonts/amssymb.sty
INPUT E:/coding/MiKTeX 2.9/tex/latex/amsfonts/amsfonts.sty
INPUT E:/coding/MiKTeX 2.9/tex/latex/amsfonts/amsfonts.sty
INPUT E:/coding/MiKTeX 2.9/tex/latex/amsmath/amsmath.sty
INPUT E:/coding/MiKTeX 2.9/tex/latex/amsmath/amsmath.sty
INPUT E:/coding/MiKTeX 2.9/tex/latex/amsmath/amstext.sty
INPUT E:/coding/MiKTeX 2.9/tex/latex/amsmath/amstext.sty
INPUT E:/coding/MiKTeX 2.9/tex/latex/amsmath/amsgen.sty
INPUT E:/coding/MiKTeX 2.9/tex/latex/amsmath/amsgen.sty
INPUT E:/coding/MiKTeX 2.9/tex/latex/amsmath/amsbsy.sty
INPUT E:/coding/MiKTeX 2.9/tex/latex/amsmath/amsbsy.sty
INPUT E:/coding/MiKTeX 2.9/tex/latex/amsmath/amsopn.sty
INPUT E:/coding/MiKTeX 2.9/tex/latex/amsmath/amsopn.sty
INPUT E:/coding/MiKTeX 2.9/tex/latex/url/url.sty
INPUT E:/coding/MiKTeX 2.9/tex/latex/url/url.sty
INPUT E:/coding/MiKTeX 2.9/tex/latex/natbib/natbib.sty
INPUT E:/coding/MiKTeX 2.9/tex/latex/natbib/natbib.sty
INPUT E:/coding/MiKTeX 2.9/tex/latex/revtex/revsymb4-1.sty
INPUT E:/coding/MiKTeX 2.9/tex/latex/revtex/revsymb4-1.sty
INPUT E:/coding/MiKTeX 2.9/tex/latex/hyperref/hyperref.sty
INPUT E:/coding/MiKTeX 2.9/tex/latex/hyperref/hyperref.sty
INPUT E:/coding/MiKTeX 2.9/tex/generic/oberdiek/hobsub-hyperref.sty
INPUT E:/coding/MiKTeX 2.9/tex/generic/oberdiek/hobsub-hyperref.sty
INPUT E:/coding/MiKTeX 2.9/tex/generic/oberdiek/hobsub-hyperref.sty
INPUT E:/coding/MiKTeX 2.9/tex/generic/oberdiek/hobsub-generic.sty
INPUT E:/coding/MiKTeX 2.9/tex/generic/oberdiek/hobsub-generic.sty
INPUT E:/coding/MiKTeX 2.9/tex/latex/graphics/keyval.sty
INPUT E:/coding/MiKTeX 2.9/tex/latex/graphics/keyval.sty
INPUT E:/coding/MiKTeX 2.9/tex/generic/ifxetex/ifxetex.sty
INPUT E:/coding/MiKTeX 2.9/tex/generic/ifxetex/ifxetex.sty
INPUT E:/coding/MiKTeX 2.9/tex/latex/oberdiek/auxhook.sty
INPUT E:/coding/MiKTeX 2.9/tex/latex/oberdiek/auxhook.sty
INPUT E:/coding/MiKTeX 2.9/tex/latex/oberdiek/kvoptions.sty
INPUT E:/coding/MiKTeX 2.9/tex/latex/oberdiek/kvoptions.sty
INPUT E:/coding/MiKTeX 2.9/tex/latex/hyperref/pd1enc.def
INPUT E:/coding/MiKTeX 2.9/tex/latex/hyperref/pd1enc.def
INPUT E:/coding/MiKTeX 2.9/tex/latex/00miktex/hyperref.cfg
INPUT E:/coding/MiKTeX 2.9/tex/latex/00miktex/hyperref.cfg
INPUT E:/coding/MiKTeX 2.9/tex/latex/hyperref/hpdftex.def
INPUT E:/coding/MiKTeX 2.9/tex/latex/hyperref/hpdftex.def
INPUT E:/coding/MiKTeX 2.9/tex/latex/oberdiek/rerunfilecheck.sty
INPUT E:/coding/MiKTeX 2.9/tex/latex/oberdiek/rerunfilecheck.sty
INPUT E:/coding/MiKTeX 2.9/tex/latex/graphics/graphicx.sty
INPUT E:/coding/MiKTeX 2.9/tex/latex/graphics/graphicx.sty
INPUT E:/coding/MiKTeX 2.9/tex/latex/graphics/graphics.sty
INPUT E:/coding/MiKTeX 2.9/tex/latex/graphics/graphics.sty
INPUT E:/coding/MiKTeX 2.9/tex/latex/graphics/trig.sty
INPUT E:/coding/MiKTeX 2.9/tex/latex/graphics/trig.sty
INPUT E:/coding/MiKTeX 2.9/tex/latex/00miktex/graphics.cfg
INPUT E:/coding/MiKTeX 2.9/tex/latex/00miktex/graphics.cfg
INPUT E:/coding/MiKTeX 2.9/tex/latex/pdftex-def/pdftex.def
INPUT E:/coding/MiKTeX 2.9/tex/latex/pdftex-def/pdftex.def
INPUT E:/coding/MiKTeX 2.9/tex/latex/tools/dcolumn.sty
INPUT E:/coding/MiKTeX 2.9/tex/latex/tools/dcolumn.sty
INPUT E:/coding/MiKTeX 2.9/tex/latex/tools/array.sty
INPUT E:/coding/MiKTeX 2.9/tex/latex/tools/array.sty
INPUT E:/coding/MiKTeX 2.9/tex/latex/tools/bm.sty
INPUT E:/coding/MiKTeX 2.9/tex/latex/tools/bm.sty
INPUT F:/research/project/NS/Output/ns.aux
INPUT F:/research/project/NS/Output/ns.aux
OUTPUT F:/research/project/NS/Output/ns.aux
INPUT E:/coding/MiKTeX 2.9/tex/latex/hyperref/nameref.sty
INPUT E:/coding/MiKTeX 2.9/tex/latex/hyperref/nameref.sty
INPUT E:/coding/MiKTeX 2.9/tex/generic/oberdiek/gettitlestring.sty
INPUT E:/coding/MiKTeX 2.9/tex/generic/oberdiek/gettitlestring.sty
INPUT F:/research/project/NS/Output/ns.out
INPUT F:/research/project/NS/Output/ns.out
INPUT F:/research/project/NS/Output/ns.out
INPUT F:/research/project/NS/Output/ns.out
OUTPUT F:/research/project/NS/Output/ns.pdf
OUTPUT F:/research/project/NS/Output/ns.out
INPUT E:/coding/MiKTeX 2.9/tex/context/base/supp-pdf.mkii
INPUT E:/coding/MiKTeX 2.9/tex/context/base/supp-pdf.mkii
OUTPUT F:/research/project/NS/Output/nsNotes.bib
INPUT E:/coding/MiKTeX 2.9/fonts/tfm/public/cm/cmr9.tfm
INPUT E:/coding/MiKTeX 2.9/fonts/tfm/public/cm/cmr12.tfm
INPUT E:/coding/MiKTeX 2.9/fonts/tfm/public/cm/cmbx12.tfm
INPUT E:/coding/MiKTeX 2.9/fonts/tfm/public/amsfonts/cmextra/cmex7.tfm
INPUT E:/coding/MiKTeX 2.9/fonts/tfm/public/amsfonts/cmextra/cmex7.tfm
INPUT E:/coding/MiKTeX 2.9/tex/latex/amsfonts/umsa.fd
INPUT E:/coding/MiKTeX 2.9/tex/latex/amsfonts/umsa.fd
INPUT E:/coding/MiKTeX 2.9/fonts/tfm/public/amsfonts/symbols/msam10.tfm
INPUT E:/coding/MiKTeX 2.9/fonts/tfm/public/amsfonts/symbols/msam7.tfm
INPUT E:/coding/MiKTeX 2.9/fonts/tfm/public/amsfonts/symbols/msam5.tfm
INPUT E:/coding/MiKTeX 2.9/tex/latex/amsfonts/umsb.fd
INPUT E:/coding/MiKTeX 2.9/tex/latex/amsfonts/umsb.fd
INPUT E:/coding/MiKTeX 2.9/fonts/tfm/public/amsfonts/symbols/msbm10.tfm
INPUT E:/coding/MiKTeX 2.9/fonts/tfm/public/amsfonts/symbols/msbm7.tfm
INPUT E:/coding/MiKTeX 2.9/fonts/tfm/public/amsfonts/symbols/msbm5.tfm
INPUT E:/coding/MiKTeX 2.9/fonts/tfm/public/cm/cmbx10.tfm
INPUT E:/coding/MiKTeX 2.9/fonts/tfm/public/cm/cmbx7.tfm
INPUT E:/coding/MiKTeX 2.9/fonts/tfm/public/cm/cmbx5.tfm
INPUT E:/coding/MiKTeX 2.9/fonts/tfm/public/cm/cmmib10.tfm
INPUT E:/coding/MiKTeX 2.9/fonts/tfm/public/amsfonts/cmextra/cmmib7.tfm
INPUT E:/coding/MiKTeX 2.9/fonts/tfm/public/amsfonts/cmextra/cmmib5.tfm
INPUT E:/coding/MiKTeX 2.9/fonts/tfm/public/cm/cmbsy10.tfm
INPUT E:/coding/MiKTeX 2.9/fonts/tfm/public/amsfonts/cmextra/cmbsy7.tfm
INPUT E:/coding/MiKTeX 2.9/fonts/tfm/public/amsfonts/cmextra/cmbsy5.tfm
INPUT F:/research/project/NS/Output/ns.bbl
INPUT F:/research/project/NS/Output/ns.bbl
INPUT E:/coding/MiKTeX 2.9/fonts/tfm/public/cm/cmbx9.tfm
INPUT C:/ProgramData/MiKTeX/2.9/pdftex/config/pdftex.map
INPUT F:/research/project/NS/Output/ns.aux
INPUT E:/coding/MiKTeX 2.9/fonts/type1/public/amsfonts/cm/cmbx12.pfb
INPUT E:/coding/MiKTeX 2.9/fonts/type1/public/amsfonts/cm/cmbx9.pfb
INPUT E:/coding/MiKTeX 2.9/fonts/type1/public/amsfonts/cm/cmex10.pfb
INPUT E:/coding/MiKTeX 2.9/fonts/type1/public/amsfonts/cm/cmmi10.pfb
INPUT E:/coding/MiKTeX 2.9/fonts/type1/public/amsfonts/cm/cmmi7.pfb
INPUT E:/coding/MiKTeX 2.9/fonts/type1/public/amsfonts/cm/cmr10.pfb
INPUT E:/coding/MiKTeX 2.9/fonts/type1/public/amsfonts/cm/cmr7.pfb
INPUT E:/coding/MiKTeX 2.9/fonts/type1/public/amsfonts/cm/cmr9.pfb
INPUT E:/coding/MiKTeX 2.9/fonts/type1/public/amsfonts/cm/cmsy10.pfb
INPUT E:/coding/MiKTeX 2.9/fonts/type1/public/amsfonts/cm/cmsy7.pfb
