# Fdb version 3
["bibtex Output/ns"] 1415112036 "Output/ns.aux" "Output/ns.bbl" "Output/ns" 1415243392
  "E:/coding/MiKTeX 2.9/bibtex/bst/revtex/apsrev4-1.bst" 1281384065 71518 fec93f06df0c073f83d2330456bd19c2 ""
  "F:/research/project/NS/Output/nsNotes.bib" 1415243392 105 48ad29797468f16e2853d8797278d7af ""
  "Output/ns.aux" 1415243392 1254 df428386cdc723a82ee10c2774874c92 ""
  "Output/ns.bcf" 0 -1 0 ""
  "ns.bib" 1415111910 241 b2682b4bbf5a7bb39faf730bc41087cc ""
  (generated)
  "Output/ns.blg"
  "Output/ns.bbl"
["pdflatex"] 1415243391 "F:\research\project\NS\ns.tex" "Output/ns.pdf" "ns" 1415243392
  "C:/ProgramData/MiKTeX/2.9/pdftex/config/pdftex.map" 1415110008 72305 3ccceb637924f06e95370129e85f860d ""
  "C:/Users/Nan/AppData/Local/MiKTeX/2.9/miktex/data/le/pdftex/pdflatex.fmt" 1414110698 3649123 856147087806be2fdee2ac14ad617057 ""
  "E:/coding/MiKTeX 2.9/fonts/tfm/public/amsfonts/cmextra/cmbsy5.tfm" 1233951848 1120 1e8878807317373affa7f7bba4cf2f6a ""
  "E:/coding/MiKTeX 2.9/fonts/tfm/public/amsfonts/cmextra/cmbsy7.tfm" 1233951848 1120 7f9f170e8aa57527ad6c49feafd45d54 ""
  "E:/coding/MiKTeX 2.9/fonts/tfm/public/amsfonts/cmextra/cmex7.tfm" 1233951848 1004 54797486969f23fa377b128694d548df ""
  "E:/coding/MiKTeX 2.9/fonts/tfm/public/amsfonts/cmextra/cmmib5.tfm" 1233951848 1496 c79f6914c6d39ffb3759967363d1be79 ""
  "E:/coding/MiKTeX 2.9/fonts/tfm/public/amsfonts/cmextra/cmmib7.tfm" 1233951848 1508 6e807ff901c35a5f1fde0ca275533df8 ""
  "E:/coding/MiKTeX 2.9/fonts/tfm/public/amsfonts/symbols/msam10.tfm" 1233951854 916 f87d7c45f9c908e672703b83b72241a3 ""
  "E:/coding/MiKTeX 2.9/fonts/tfm/public/amsfonts/symbols/msam5.tfm" 1233951854 924 9904cf1d39e9767e7a3622f2a125a565 ""
  "E:/coding/MiKTeX 2.9/fonts/tfm/public/amsfonts/symbols/msam7.tfm" 1233951854 928 2dc8d444221b7a635bb58038579b861a ""
  "E:/coding/MiKTeX 2.9/fonts/tfm/public/amsfonts/symbols/msbm10.tfm" 1233951854 908 2921f8a10601f252058503cc6570e581 ""
  "E:/coding/MiKTeX 2.9/fonts/tfm/public/amsfonts/symbols/msbm5.tfm" 1233951854 940 75ac932a52f80982a9f8ea75d03a34cf ""
  "E:/coding/MiKTeX 2.9/fonts/tfm/public/amsfonts/symbols/msbm7.tfm" 1233951854 940 228d6584342e91276bf566bcf9716b83 ""
  "E:/coding/MiKTeX 2.9/fonts/tfm/public/cm/cmbsy10.tfm" 1136765053 1116 4e6ba9d7914baa6482fd69f67d126380 ""
  "E:/coding/MiKTeX 2.9/fonts/tfm/public/cm/cmbx10.tfm" 1136765053 1328 c834bbb027764024c09d3d2bf908b5f0 ""
  "E:/coding/MiKTeX 2.9/fonts/tfm/public/cm/cmbx12.tfm" 1136765053 1324 c910af8c371558dc20f2d7822f66fe64 ""
  "E:/coding/MiKTeX 2.9/fonts/tfm/public/cm/cmbx5.tfm" 1136765053 1332 f817c21a1ba54560425663374f1b651a ""
  "E:/coding/MiKTeX 2.9/fonts/tfm/public/cm/cmbx7.tfm" 1136765053 1336 3125ccb448c1a09074e3aa4a9832f130 ""
  "E:/coding/MiKTeX 2.9/fonts/tfm/public/cm/cmbx9.tfm" 1136765053 1328 5442e22a7072966dbaf88ca900acf3f0 ""
  "E:/coding/MiKTeX 2.9/fonts/tfm/public/cm/cmmib10.tfm" 1136765053 1524 554068197b70979a55370e6c6495f441 ""
  "E:/coding/MiKTeX 2.9/fonts/tfm/public/cm/cmr12.tfm" 1136765053 1288 655e228510b4c2a1abe905c368440826 ""
  "E:/coding/MiKTeX 2.9/fonts/tfm/public/cm/cmr9.tfm" 1136765053 1292 6b21b9c2c7bebb38aa2273f7ca0fb3af ""
  "E:/coding/MiKTeX 2.9/fonts/type1/public/amsfonts/cm/cmbx12.pfb" 1247593066 32080 340ef9bf63678554ee606688e7b5339d ""
  "E:/coding/MiKTeX 2.9/fonts/type1/public/amsfonts/cm/cmbx9.pfb" 1247593067 32298 c6d25bb16d1eac01ebdc6d7084126a1e ""
  "E:/coding/MiKTeX 2.9/fonts/type1/public/amsfonts/cm/cmex10.pfb" 1247593067 30251 6afa5cb1d0204815a708a080681d4674 ""
  "E:/coding/MiKTeX 2.9/fonts/type1/public/amsfonts/cm/cmmi10.pfb" 1247593067 36299 5f9df58c2139e7edcf37c8fca4bd384d ""
  "E:/coding/MiKTeX 2.9/fonts/type1/public/amsfonts/cm/cmmi7.pfb" 1247593067 36281 c355509802a035cadc5f15869451dcee ""
  "E:/coding/MiKTeX 2.9/fonts/type1/public/amsfonts/cm/cmr10.pfb" 1247593067 35752 024fb6c41858982481f6968b5fc26508 ""
  "E:/coding/MiKTeX 2.9/fonts/type1/public/amsfonts/cm/cmr7.pfb" 1247593067 32762 7fee39e011c23b3589931effd97b9702 ""
  "E:/coding/MiKTeX 2.9/fonts/type1/public/amsfonts/cm/cmr9.pfb" 1247593066 33993 9b89b85fd2d9df0482bd47194d1d3bf3 ""
  "E:/coding/MiKTeX 2.9/fonts/type1/public/amsfonts/cm/cmsy10.pfb" 1247593067 32569 5e5ddc8df908dea60932f3c484a54c0d ""
  "E:/coding/MiKTeX 2.9/fonts/type1/public/amsfonts/cm/cmsy7.pfb" 1247593066 32716 08e384dc442464e7285e891af9f45947 ""
  "E:/coding/MiKTeX 2.9/tex/context/base/supp-pdf.mkii" 1306914861 71592 fe353e1fbd982ffc647f3e98ff74da96 ""
  "E:/coding/MiKTeX 2.9/tex/generic/ifxetex/ifxetex.sty" 1284257189 1458 43ab4710dc82f3edeabecd0d099626b2 ""
  "E:/coding/MiKTeX 2.9/tex/generic/oberdiek/gettitlestring.sty" 1335450749 8237 52810bdb4db2270e717422560a104aea ""
  "E:/coding/MiKTeX 2.9/tex/generic/oberdiek/hobsub-generic.sty" 1335450885 189108 b6332bdfbe5a7928869d963b5feba6e4 ""
  "E:/coding/MiKTeX 2.9/tex/generic/oberdiek/hobsub-hyperref.sty" 1335450886 70749 430f92b854dd95696a0bc06728e2d28f ""
  "E:/coding/MiKTeX 2.9/tex/latex/00miktex/graphics.cfg" 1169166149 1599 cc574e5c201b0aea0b14dad7e51fd367 ""
  "E:/coding/MiKTeX 2.9/tex/latex/00miktex/hyperref.cfg" 1136242423 235 6031e5765137be07eed51a510b2b8fb7 ""
  "E:/coding/MiKTeX 2.9/tex/latex/amsfonts/amsfonts.sty" 1358197772 5949 3f3fd50a8cc94c3d4cbf4fc66cd3df1c ""
  "E:/coding/MiKTeX 2.9/tex/latex/amsfonts/amssymb.sty" 1358197772 13829 94730e64147574077f8ecfea9bb69af4 ""
  "E:/coding/MiKTeX 2.9/tex/latex/amsfonts/umsa.fd" 1358197772 961 6518c6525a34feb5e8250ffa91731cff ""
  "E:/coding/MiKTeX 2.9/tex/latex/amsfonts/umsb.fd" 1358197772 961 d02606146ba5601b5645f987c92e6193 ""
  "E:/coding/MiKTeX 2.9/tex/latex/amsmath/amsbsy.sty" 1362770513 2412 2d98314dc5be38f455f8890deeb2d091 ""
  "E:/coding/MiKTeX 2.9/tex/latex/amsmath/amsgen.sty" 1362770514 4357 ad30ad08920902fc9b38caf35a3b0496 ""
  "E:/coding/MiKTeX 2.9/tex/latex/amsmath/amsmath.sty" 1362770515 79178 b2e326c351e876df0e5e23df2e02441b ""
  "E:/coding/MiKTeX 2.9/tex/latex/amsmath/amsopn.sty" 1362770518 4082 502152465aedb8f6a3c4b0b7c0fa8ae5 ""
  "E:/coding/MiKTeX 2.9/tex/latex/amsmath/amstext.sty" 1362770519 2637 846ebe982d3549c7ede7ce135456f54a ""
  "E:/coding/MiKTeX 2.9/tex/latex/graphics/graphics.sty" 1253893524 14183 42a8fc761b806986eef292369afc2988 ""
  "E:/coding/MiKTeX 2.9/tex/latex/graphics/graphicx.sty" 1253893524 7882 3bd78469d444e8d494e27cfd7ca92719 ""
  "E:/coding/MiKTeX 2.9/tex/latex/graphics/keyval.sty" 1253893524 2266 7054435e4584a41cf53b0a7ca624d0cb ""
  "E:/coding/MiKTeX 2.9/tex/latex/graphics/trig.sty" 1253893524 3153 c50e6bd54d2dd3933fc52bcf369bec4a ""
  "E:/coding/MiKTeX 2.9/tex/latex/hyperref/hpdftex.def" 1352254148 51837 247bd8424b3835ef78c236dc1e0b4aef ""
  "E:/coding/MiKTeX 2.9/tex/latex/hyperref/hyperref.sty" 1352254148 231792 5fc9dc7dd667e773a766ecc63bba7f4b ""
  "E:/coding/MiKTeX 2.9/tex/latex/hyperref/nameref.sty" 1352254148 12847 25b617d63258c4f72870c883493a3cf8 ""
  "E:/coding/MiKTeX 2.9/tex/latex/hyperref/pd1enc.def" 1352254149 14005 155ac8fad2e5dd7c2cdd130fabd96633 ""
  "E:/coding/MiKTeX 2.9/tex/latex/natbib/natbib.sty" 1292249081 46712 1c8843383c0bd05870c45fa0ebea6cc2 ""
  "E:/coding/MiKTeX 2.9/tex/latex/oberdiek/auxhook.sty" 1335450732 3834 707ef09f31d7d2ea47ba89974755dfe0 ""
  "E:/coding/MiKTeX 2.9/tex/latex/oberdiek/kvoptions.sty" 1335450770 22417 c74ff4af6a1aa2b65d1924020edbbe11 ""
  "E:/coding/MiKTeX 2.9/tex/latex/oberdiek/rerunfilecheck.sty" 1335450793 9581 1158efc648bc09d5064db5703c882159 ""
  "E:/coding/MiKTeX 2.9/tex/latex/pdftex-def/pdftex.def" 1306441260 55368 3c8a0d99822330f2dfabc0dfb09ce897 ""
  "E:/coding/MiKTeX 2.9/tex/latex/revtex/aps10pt4-1.rtx" 1281383990 4343 a0275f592f8d74cb0d60b78294d10c2e ""
  "E:/coding/MiKTeX 2.9/tex/latex/revtex/aps4-1.rtx" 1281383990 15227 2888c3e94449d608adb6fe4ee6f4121d ""
  "E:/coding/MiKTeX 2.9/tex/latex/revtex/revsymb4-1.sty" 1281383990 5191 68f8787861a9ba3c4a5a4959a687ef10 ""
  "E:/coding/MiKTeX 2.9/tex/latex/revtex/revtex4-1.cls" 1281383990 199798 166dddb5ba2b6c918ce38d92ad67794f ""
  "E:/coding/MiKTeX 2.9/tex/latex/textcase/textcase.sty" 1128383776 2083 79a2c3efd954daff1698214872b6ca46 ""
  "E:/coding/MiKTeX 2.9/tex/latex/tools/array.sty" 1317718712 13516 3e38b06d6e7ca62ce1bdb63b0d6148a5 ""
  "E:/coding/MiKTeX 2.9/tex/latex/tools/bm.sty" 1317718712 12247 9bcc8ce3d4bd33b432b9fc9543d4666e ""
  "E:/coding/MiKTeX 2.9/tex/latex/tools/dcolumn.sty" 1317718712 2698 bbacdba3e62bcb7c48af8bd8896fbeb4 ""
  "E:/coding/MiKTeX 2.9/tex/latex/url/url.sty" 1388490452 12796 8edb7d69a20b857904dd0ea757c14ec9 ""
  "F:\research\project\NS\ns.tex" 1415243306 4240 a31af7d4b56287df29925ce45d65a43a ""
  "Output/ns.aux" 1415243392 1254 df428386cdc723a82ee10c2774874c92 ""
  "Output/ns.bbl" 1415112036 2522 a79e8d324ddcac550cf90b5d34655008 "bibtex Output/ns"
  "Output/ns.out" 1415243392 172 e8c8b8d738950528e142744a9adb21a0 ""
  "ns.tex" 1415243306 4240 a31af7d4b56287df29925ce45d65a43a ""
  (generated)
  "Output/ns.aux"
  "Output/ns.out"
  "Output/ns.pdf"
  "Output/nsNotes.bib"
  "Output/ns.log"
